Data/QM2/Teil 1/oszi/0deg2450.csv

X,CH1,CH2,CH3,Start,Increment,
Sequence,Volt,Volt,Volt,-6.000000e-04,1.000000e-06
0,-1.60e-01,4.80e-01,-5.60e-01,
1,-4.00e-01,4.40e-01,-4.40e-01,
2,-4.00e-01,4.80e-01,-4.80e-01,
3,-1.60e-01,4.00e-01,-4.40e-01,
4,-2.40e-01,4.40e-01,-4.80e-01,
5,-4.80e-01,4.00e-01,-4.00e-01,
6,-3.20e-01,4.40e-01,-4.00e-01,
7,-5.60e-01,3.60e-01,-4.80e-01,
8,-5.60e-01,4.00e-01,-4.40e-01,
9,-4.00e-01,3.60e-01,-3.60e-01,
10,-4.00e-01,4.00e-01,-3.60e-01,
11,-7.20e-01,3.20e-01,-4.40e-01,
12,-5.60e-01,4.00e-01,-4.00e-01,
13,-8.00e-01,3.20e-01,-3.20e-01,
14,-6.40e-01,3.60e-01,-4.00e-01,
15,-8.00e-01,2.80e-01,-3.20e-01,
16,-6.40e-01,3.60e-01,-3.20e-01,
17,-8.80e-01,2.80e-01,-3.60e-01,
18,-7.20e-01,3.20e-01,-2.80e-01,
19,-9.60e-01,2.40e-01,-3.60e-01,
20,-9.60e-01,3.20e-01,-3.20e-01,
21,-7.20e-01,2.00e-01,-2.40e-01,
22,-8.00e-01,2.40e-01,-2.80e-01,
23,-1.04e+00,2.00e-01,-2.00e-01,
24,-1.04e+00,2.40e-01,-2.40e-01,
25,-8.80e-01,1.60e-01,-2.00e-01,
26,-9.60e-01,2.00e-01,-1.60e-01,
27,-1.20e+00,1.20e-01,-2.40e-01,
28,-1.04e+00,2.00e-01,-2.00e-01,
29,-1.20e+00,1.20e-01,-1.60e-01,
30,-1.04e+00,1.60e-01,-1.20e-01,
31,-1.28e+00,8.00e-02,-2.00e-01,
32,-1.12e+00,1.60e-01,-1.60e-01,
33,-1.36e+00,8.00e-02,-8.00e-02,
34,-1.12e+00,1.20e-01,-1.60e-01,
35,-1.36e+00,4.00e-02,-8.00e-02,
36,-1.20e+00,1.20e-01,-1.20e-01,
37,-1.44e+00,4.00e-02,-4.00e-02,
38,-1.20e+00,4.00e-02,-4.00e-02,
39,-1.44e+00,-4.00e-02,-1.20e-01,
40,-1.44e+00,8.00e-02,-8.00e-02,
41,-1.28e+00,-4.00e-02,0.00e+00,
42,-1.36e+00,0.00e+00,-8.00e-02,
43,-1.60e+00,-8.00e-02,4.00e-02,
44,-1.36e+00,-8.00e-02,0.00e+00,
45,-1.60e+00,0.00e+00,8.00e-02,
46,-1.36e+00,-4.00e-02,0.00e+00,
47,-1.68e+00,-1.20e-01,8.00e-02,
48,-1.52e+00,-4.00e-02,4.00e-02,
49,-1.68e+00,-1.20e-01,1.20e-01,
50,-1.52e+00,-8.00e-02,4.00e-02,
51,-1.76e+00,-1.60e-01,1.20e-01,
52,-1.52e+00,-1.60e-01,8.00e-02,
53,-1.76e+00,-1.20e-01,1.60e-01,
54,-1.76e+00,-1.20e-01,8.00e-02,
55,-1.60e+00,-2.00e-01,1.60e-01,
56,-1.60e+00,-2.00e-01,1.20e-01,
57,-1.84e+00,-1.20e-01,2.00e-01,
58,-1.68e+00,-2.00e-01,1.20e-01,
59,-1.84e+00,-2.80e-01,2.00e-01,
60,-1.84e+00,-2.40e-01,2.00e-01,
61,-1.68e+00,-2.80e-01,1.60e-01,
62,-1.68e+00,-2.40e-01,1.60e-01,
63,-1.92e+00,-3.20e-01,2.80e-01,
64,-1.68e+00,-2.40e-01,2.40e-01,
65,-1.92e+00,-3.20e-01,2.80e-01,
66,-2.00e+00,-2.80e-01,2.40e-01,
67,-1.68e+00,-3.60e-01,3.20e-01,
68,-1.76e+00,-2.80e-01,2.40e-01,
69,-2.00e+00,-3.60e-01,3.20e-01,
70,-1.76e+00,-3.20e-01,2.80e-01,
71,-2.00e+00,-4.00e-01,3.60e-01,
72,-2.08e+00,-4.00e-01,3.60e-01,
73,-1.84e+00,-3.20e-01,2.80e-01,
74,-1.84e+00,-3.60e-01,3.20e-01,
75,-2.08e+00,-4.40e-01,3.60e-01,
76,-1.84e+00,-3.60e-01,3.20e-01,
77,-2.08e+00,-4.80e-01,4.00e-01,
78,-1.84e+00,-4.40e-01,4.00e-01,
79,-2.08e+00,-4.80e-01,3.60e-01,
80,-1.84e+00,-4.40e-01,3.60e-01,
81,-2.08e+00,-5.20e-01,4.40e-01,
82,-1.84e+00,-5.20e-01,3.60e-01,
83,-2.08e+00,-4.80e-01,4.40e-01,
84,-2.16e+00,-4.80e-01,4.00e-01,
85,-1.92e+00,-5.60e-01,4.80e-01,
86,-1.92e+00,-4.80e-01,4.00e-01,
87,-2.16e+00,-5.60e-01,5.20e-01,
88,-2.16e+00,-5.20e-01,4.80e-01,
89,-1.84e+00,-6.00e-01,5.60e-01,
90,-2.00e+00,-5.20e-01,4.80e-01,
91,-2.16e+00,-6.00e-01,5.60e-01,
92,-2.00e+00,-6.00e-01,4.80e-01,
93,-2.16e+00,-5.60e-01,5.60e-01,
94,-2.16e+00,-6.40e-01,5.20e-01,
95,-1.92e+00,-5.60e-01,5.60e-01,
96,-2.00e+00,-5.60e-01,5.20e-01,
97,-2.16e+00,-6.40e-01,6.00e-01,
98,-2.00e+00,-6.00e-01,6.00e-01,
99,-2.16e+00,-6.80e-01,5.20e-01,
100,-1.92e+00,-6.00e-01,6.00e-01,
101,-2.16e+00,-7.20e-01,5.60e-01,
102,-2.08e+00,-7.20e-01,5.60e-01,
103,-1.84e+00,-6.40e-01,6.40e-01,
104,-2.08e+00,-6.80e-01,5.60e-01,
105,-1.84e+00,-7.20e-01,6.40e-01,
106,-1.84e+00,-6.80e-01,6.40e-01,
107,-2.08e+00,-7.60e-01,5.60e-01,
108,-1.84e+00,-6.80e-01,6.00e-01,
109,-2.08e+00,-7.60e-01,6.40e-01,
110,-1.84e+00,-7.60e-01,6.00e-01,
111,-2.08e+00,-7.20e-01,6.80e-01,
112,-2.08e+00,-7.20e-01,6.00e-01,
113,-1.84e+00,-8.00e-01,6.80e-01,
114,-2.08e+00,-7.20e-01,6.80e-01,
115,-1.76e+00,-8.00e-01,6.00e-01,
116,-1.92e+00,-8.00e-01,6.40e-01,
117,-1.76e+00,-7.20e-01,6.80e-01,
118,-1.92e+00,-8.00e-01,6.80e-01,
119,-1.76e+00,-7.60e-01,6.40e-01,
120,-1.92e+00,-7.60e-01,6.40e-01,
121,-1.76e+00,-8.40e-01,7.60e-01,
122,-1.92e+00,-7.60e-01,6.40e-01,
123,-1.68e+00,-8.40e-01,7.60e-01,
124,-1.84e+00,-8.40e-01,7.60e-01,
125,-1.68e+00,-7.60e-01,6.40e-01,
126,-1.84e+00,-8.40e-01,6.40e-01,
127,-1.68e+00,-7.60e-01,7.60e-01,
128,-1.84e+00,-8.00e-01,7.20e-01,
129,-1.60e+00,-8.40e-01,7.60e-01,
130,-1.60e+00,-8.40e-01,7.20e-01,
131,-1.76e+00,-8.00e-01,7.60e-01,
132,-1.60e+00,-8.40e-01,7.20e-01,
133,-1.76e+00,-8.00e-01,7.60e-01,
134,-1.68e+00,-8.00e-01,7.20e-01,
135,-1.52e+00,-8.80e-01,7.60e-01,
136,-1.68e+00,-8.80e-01,7.20e-01,
137,-1.52e+00,-8.00e-01,8.00e-01,
138,-1.68e+00,-8.80e-01,7.20e-01,
139,-1.44e+00,-8.00e-01,7.60e-01,
140,-1.36e+00,-8.80e-01,7.20e-01,
141,-1.60e+00,-8.00e-01,7.60e-01,
142,-1.60e+00,-8.80e-01,7.60e-01,
143,-1.36e+00,-8.00e-01,7.20e-01,
144,-1.52e+00,-8.80e-01,7.20e-01,
145,-1.28e+00,-8.00e-01,7.60e-01,
146,-1.28e+00,-8.80e-01,7.20e-01,
147,-1.44e+00,-8.00e-01,7.60e-01,
148,-1.44e+00,-8.80e-01,7.20e-01,
149,-1.20e+00,-8.00e-01,7.60e-01,
150,-1.20e+00,-8.00e-01,7.20e-01,
151,-1.36e+00,-8.80e-01,7.60e-01,
152,-1.28e+00,-8.80e-01,7.20e-01,
153,-1.12e+00,-8.00e-01,7.60e-01,
154,-1.12e+00,-8.80e-01,7.20e-01,
155,-1.28e+00,-8.00e-01,7.60e-01,
156,-1.28e+00,-8.00e-01,7.60e-01,
157,-1.04e+00,-8.80e-01,6.80e-01,
158,-1.04e+00,-8.40e-01,6.80e-01,
159,-1.20e+00,-8.00e-01,7.60e-01,
160,-1.04e+00,-8.40e-01,7.60e-01,
161,-8.80e-01,-8.00e-01,6.40e-01,
162,-1.04e+00,-8.40e-01,7.60e-01,
163,-8.80e-01,-8.00e-01,6.40e-01,
164,-9.60e-01,-8.40e-01,7.60e-01,
165,-8.00e-01,-8.00e-01,6.40e-01,
166,-9.60e-01,-8.40e-01,6.80e-01,
167,-7.20e-01,-7.60e-01,6.40e-01,
168,-8.80e-01,-7.60e-01,6.80e-01,
169,-7.20e-01,-8.40e-01,6.40e-01,
170,-8.00e-01,-8.40e-01,6.00e-01,
171,-6.40e-01,-7.60e-01,6.80e-01,
172,-8.00e-01,-8.00e-01,6.80e-01,
173,-5.60e-01,-7.60e-01,6.00e-01,
174,-7.20e-01,-8.00e-01,6.00e-01,
175,-4.80e-01,-7.60e-01,6.80e-01,
176,-6.40e-01,-8.00e-01,6.40e-01,
177,-4.00e-01,-7.20e-01,6.00e-01,
178,-5.60e-01,-7.20e-01,6.40e-01,
179,-3.20e-01,-8.00e-01,5.60e-01,
180,-4.80e-01,-7.20e-01,5.60e-01,
181,-3.20e-01,-7.60e-01,6.40e-01,
182,-4.80e-01,-7.20e-01,6.00e-01,
183,-2.40e-01,-7.60e-01,5.60e-01,
184,-2.40e-01,-7.60e-01,5.60e-01,
185,-4.00e-01,-6.80e-01,6.00e-01,
186,-3.20e-01,-6.80e-01,6.00e-01,
187,-1.60e-01,-7.60e-01,5.20e-01,
188,-3.20e-01,-6.80e-01,5.60e-01,
189,-8.00e-02,-7.20e-01,5.20e-01,
190,0.00e+00,-7.20e-01,5.60e-01,
191,-2.40e-01,-6.40e-01,4.80e-01,
192,-1.60e-01,-6.00e-01,5.60e-01,
193,8.00e-02,-7.20e-01,4.80e-01,
194,-8.00e-02,-6.80e-01,4.80e-01,
195,1.60e-01,-6.00e-01,5.60e-01,
196,0.00e+00,-6.40e-01,4.80e-01,
197,1.60e-01,-5.60e-01,5.20e-01,
198,8.00e-02,-6.40e-01,5.20e-01,
199,2.40e-01,-5.60e-01,4.00e-01,
200,8.00e-02,-6.00e-01,4.40e-01,
201,3.20e-01,-5.60e-01,4.00e-01,
202,1.60e-01,-6.00e-01,4.40e-01,
203,3.20e-01,-5.20e-01,3.60e-01,
204,1.60e-01,-5.60e-01,4.40e-01,
205,4.80e-01,-5.20e-01,3.60e-01,
206,2.40e-01,-5.60e-01,4.00e-01,
207,4.80e-01,-4.80e-01,3.20e-01,
208,4.00e-01,-5.60e-01,4.00e-01,
209,5.60e-01,-4.80e-01,3.20e-01,
210,4.00e-01,-4.80e-01,4.00e-01,
211,6.40e-01,-5.20e-01,3.20e-01,
212,4.80e-01,-5.20e-01,3.60e-01,
213,7.20e-01,-4.40e-01,2.80e-01,
214,7.20e-01,-4.40e-01,2.80e-01,
215,5.60e-01,-5.20e-01,3.60e-01,
216,6.40e-01,-4.80e-01,3.20e-01,
217,8.00e-01,-3.60e-01,2.40e-01,
218,6.40e-01,-4.00e-01,2.40e-01,
219,8.80e-01,-3.60e-01,3.20e-01,
220,7.20e-01,-4.00e-01,2.80e-01,
221,9.60e-01,-3.20e-01,1.60e-01,
222,8.00e-01,-3.20e-01,1.60e-01,
223,1.04e+00,-4.00e-01,2.80e-01,
224,8.80e-01,-3.60e-01,2.00e-01,
225,1.04e+00,-2.80e-01,1.20e-01,
226,8.80e-01,-2.80e-01,2.00e-01,
227,1.12e+00,-3.60e-01,1.20e-01,
228,1.12e+00,-3.20e-01,1.20e-01,
229,9.60e-01,-2.40e-01,1.60e-01,
230,1.04e+00,-2.40e-01,1.60e-01,
231,1.20e+00,-3.20e-01,8.00e-02,
232,1.04e+00,-2.80e-01,1.20e-01,
233,1.20e+00,-2.00e-01,8.00e-02,
234,1.12e+00,-2.80e-01,1.20e-01,
235,1.28e+00,-2.00e-01,4.00e-02,
236,1.12e+00,-2.00e-01,4.00e-02,
237,1.36e+00,-1.20e-01,8.00e-02,
238,1.28e+00,-2.00e-01,8.00e-02,
239,1.44e+00,-1.20e-01,0.00e+00,
240,1.28e+00,-1.60e-01,0.00e+00,
241,1.52e+00,-8.00e-02,4.00e-02,
242,1.36e+00,-8.00e-02,4.00e-02,
243,1.52e+00,-1.60e-01,-8.00e-02,
244,1.36e+00,-1.20e-01,-4.00e-02,
245,1.52e+00,-4.00e-02,-8.00e-02,
246,1.44e+00,-1.20e-01,-4.00e-02,
247,1.60e+00,-4.00e-02,-1.20e-01,
248,1.44e+00,-8.00e-02,-8.00e-02,
249,1.60e+00,0.00e+00,-1.20e-01,
250,1.52e+00,0.00e+00,-8.00e-02,
251,1.68e+00,-8.00e-02,-1.60e-01,
252,1.68e+00,-4.00e-02,-1.60e-01,
253,1.52e+00,8.00e-02,-1.20e-01,
254,1.52e+00,-4.00e-02,-1.20e-01,
255,1.76e+00,4.00e-02,-2.00e-01,
256,1.60e+00,4.00e-02,-1.20e-01,
257,1.84e+00,1.20e-01,-2.40e-01,
258,1.76e+00,4.00e-02,-1.60e-01,
259,1.60e+00,1.20e-01,-2.40e-01,
260,1.68e+00,8.00e-02,-2.40e-01,
261,1.92e+00,1.60e-01,-2.00e-01,
262,1.76e+00,1.60e-01,-2.00e-01,
263,1.92e+00,8.00e-02,-3.20e-01,
264,1.76e+00,1.20e-01,-2.80e-01,
265,1.92e+00,2.00e-01,-3.20e-01,
266,2.00e+00,2.00e-01,-2.80e-01,
267,1.76e+00,1.20e-01,-3.60e-01,
268,2.00e+00,1.60e-01,-2.80e-01,
269,1.84e+00,2.40e-01,-3.60e-01,
270,2.00e+00,2.40e-01,-3.20e-01,
271,1.84e+00,1.60e-01,-4.00e-01,
272,2.00e+00,2.00e-01,-4.00e-01,
273,1.84e+00,3.20e-01,-3.20e-01,
274,1.84e+00,3.20e-01,-3.60e-01,
275,2.08e+00,2.00e-01,-4.40e-01,
276,1.92e+00,2.80e-01,-3.60e-01,
277,2.08e+00,3.60e-01,-4.40e-01,
278,2.08e+00,3.60e-01,-4.00e-01,
279,1.92e+00,2.80e-01,-4.80e-01,
280,1.92e+00,3.60e-01,-4.00e-01,
281,2.08e+00,3.20e-01,-4.80e-01,
282,2.08e+00,3.20e-01,-4.80e-01,
283,1.92e+00,4.00e-01,-4.40e-01,
284,2.08e+00,3.60e-01,-5.60e-01,
285,1.92e+00,4.00e-01,-4.40e-01,
286,2.16e+00,3.60e-01,-4.80e-01,
287,1.92e+00,4.40e-01,-5.60e-01,
288,2.00e+00,4.40e-01,-5.20e-01,
289,2.16e+00,3.60e-01,-6.00e-01,
290,2.16e+00,4.00e-01,-5.20e-01,
291,2.00e+00,4.80e-01,-6.00e-01,
292,2.00e+00,4.80e-01,-5.60e-01,
293,2.16e+00,4.40e-01,-6.00e-01,
294,2.16e+00,4.80e-01,-5.60e-01,
295,2.00e+00,4.40e-01,-6.40e-01,
296,2.16e+00,4.40e-01,-6.40e-01,
297,2.00e+00,5.60e-01,-5.60e-01,
298,2.00e+00,4.40e-01,-6.40e-01,
299,2.16e+00,5.60e-01,-6.00e-01,
300,2.16e+00,5.20e-01,-6.00e-01,
301,2.00e+00,5.60e-01,-6.80e-01,
302,2.16e+00,5.20e-01,-6.00e-01,
303,2.00e+00,6.00e-01,-6.80e-01,
304,2.16e+00,5.60e-01,-6.40e-01,
305,2.00e+00,6.00e-01,-6.80e-01,
306,2.16e+00,5.60e-01,-6.40e-01,
307,1.92e+00,6.40e-01,-7.20e-01,
308,2.08e+00,5.60e-01,-7.20e-01,
309,1.92e+00,6.40e-01,-6.40e-01,
310,2.08e+00,6.40e-01,-7.20e-01,
311,1.92e+00,6.00e-01,-6.40e-01,
312,2.08e+00,6.40e-01,-7.20e-01,
313,1.92e+00,6.00e-01,-6.80e-01,
314,2.08e+00,6.00e-01,-6.80e-01,
315,1.92e+00,6.80e-01,-8.00e-01,
316,2.08e+00,6.00e-01,-6.80e-01,
317,1.92e+00,6.80e-01,-8.00e-01,
318,1.92e+00,6.80e-01,-7.20e-01,
319,2.08e+00,6.40e-01,-8.00e-01,
320,2.00e+00,6.40e-01,-7.60e-01,
321,1.84e+00,6.80e-01,-8.00e-01,
322,1.84e+00,6.40e-01,-7.60e-01,
323,2.00e+00,7.20e-01,-8.00e-01,
324,1.84e+00,7.20e-01,-7.60e-01,
325,2.00e+00,6.40e-01,-8.40e-01,
326,2.00e+00,7.20e-01,-7.60e-01,
327,1.84e+00,6.40e-01,-8.40e-01,
328,1.92e+00,7.20e-01,-8.40e-01,
329,1.76e+00,7.20e-01,-7.60e-01,
330,1.76e+00,7.20e-01,-7.60e-01,
331,1.92e+00,6.80e-01,-8.40e-01,
332,1.92e+00,7.20e-01,-8.00e-01,
333,1.68e+00,7.20e-01,-8.40e-01,
334,1.68e+00,7.20e-01,-8.00e-01,
335,1.84e+00,7.60e-01,-8.40e-01,
336,1.60e+00,7.20e-01,-8.00e-01,
337,1.84e+00,8.00e-01,-8.40e-01,
338,1.76e+00,8.00e-01,-8.00e-01,
339,1.60e+00,7.20e-01,-8.40e-01,
340,1.68e+00,8.00e-01,-8.00e-01,
341,1.52e+00,6.80e-01,-8.40e-01,
342,1.68e+00,8.00e-01,-8.00e-01,
343,1.52e+00,7.20e-01,-8.40e-01,
344,1.60e+00,8.00e-01,-8.00e-01,
345,1.44e+00,7.20e-01,-8.40e-01,
346,1.44e+00,7.60e-01,-8.00e-01,
347,1.60e+00,8.00e-01,-8.40e-01,
348,1.52e+00,8.00e-01,-8.00e-01,
349,1.36e+00,7.60e-01,-8.40e-01,
350,1.36e+00,7.60e-01,-8.40e-01,
351,1.52e+00,8.00e-01,-8.00e-01,
352,1.44e+00,7.60e-01,-8.40e-01,
353,1.28e+00,8.00e-01,-8.00e-01,
354,1.44e+00,7.60e-01,-8.00e-01,
355,1.28e+00,8.00e-01,-8.40e-01,
356,1.44e+00,8.00e-01,-8.00e-01,
357,1.12e+00,7.20e-01,-8.40e-01,
358,1.28e+00,8.00e-01,-8.40e-01,
359,1.12e+00,7.20e-01,-8.00e-01,
360,1.28e+00,8.00e-01,-8.00e-01,
361,1.04e+00,7.20e-01,-8.40e-01,
362,1.04e+00,6.80e-01,-8.40e-01,
363,1.20e+00,8.00e-01,-7.60e-01,
364,1.20e+00,8.00e-01,-7.60e-01,
365,9.60e-01,6.80e-01,-8.40e-01,
366,1.12e+00,7.20e-01,-7.60e-01,
367,9.60e-01,6.80e-01,-8.40e-01,
368,1.04e+00,7.60e-01,-7.60e-01,
369,8.80e-01,6.80e-01,-8.00e-01,
370,1.04e+00,7.20e-01,-8.00e-01,
371,8.00e-01,7.20e-01,-7.60e-01,
372,9.60e-01,7.20e-01,-8.00e-01,
373,7.20e-01,7.20e-01,-7.20e-01,
374,9.60e-01,7.20e-01,-8.00e-01,
375,6.40e-01,6.40e-01,-7.20e-01,
376,8.00e-01,7.20e-01,-8.00e-01,
377,6.40e-01,6.40e-01,-6.80e-01,
378,7.20e-01,6.40e-01,-7.20e-01,
379,5.60e-01,7.20e-01,-6.80e-01,
380,7.20e-01,6.40e-01,-7.20e-01,
381,4.80e-01,6.80e-01,-6.80e-01,
382,6.40e-01,6.80e-01,-7.20e-01,
383,4.80e-01,6.40e-01,-6.40e-01,
384,5.60e-01,6.80e-01,-7.20e-01,
385,4.00e-01,6.00e-01,-6.40e-01,
386,4.00e-01,6.00e-01,-6.80e-01,
387,5.60e-01,6.80e-01,-6.40e-01,
388,4.80e-01,6.40e-01,-6.80e-01,
389,2.40e-01,6.00e-01,-6.40e-01,
390,4.80e-01,6.40e-01,-6.80e-01,
391,1.60e-01,5.60e-01,-6.00e-01,
392,3.20e-01,6.40e-01,-6.00e-01,
393,1.60e-01,5.60e-01,-6.80e-01,
394,2.40e-01,5.60e-01,-6.40e-01,
395,8.00e-02,6.00e-01,-5.60e-01,
396,2.40e-01,5.60e-01,-6.40e-01,
397,0.00e+00,6.00e-01,-5.60e-01,
398,1.60e-01,6.00e-01,-5.60e-01,
399,0.00e+00,5.20e-01,-6.00e-01,
400,8.00e-02,5.60e-01,-6.00e-01,
401,-8.00e-02,5.20e-01,-5.20e-01,
402,8.00e-02,5.60e-01,-5.20e-01,
403,-1.60e-01,4.80e-01,-6.00e-01,
404,-8.00e-02,5.60e-01,-5.20e-01,
405,-2.40e-01,4.40e-01,-5.60e-01,
406,-1.60e-01,4.80e-01,-5.60e-01,
407,-3.20e-01,4.40e-01,-4.40e-01,
408,-1.60e-01,4.80e-01,-5.60e-01,
409,-4.00e-01,4.00e-01,-4.40e-01,
410,-2.40e-01,4.80e-01,-4.80e-01,
411,-4.00e-01,4.00e-01,-4.00e-01,
412,-2.40e-01,4.40e-01,-4.80e-01,
413,-4.80e-01,3.60e-01,-4.00e-01,
414,-3.20e-01,4.40e-01,-4.40e-01,
415,-5.60e-01,3.60e-01,-3.60e-01,
416,-5.60e-01,4.00e-01,-4.40e-01,
417,-4.00e-01,3.20e-01,-3.60e-01,
418,-4.00e-01,4.00e-01,-4.00e-01,
419,-7.20e-01,3.20e-01,-3.60e-01,
420,-4.80e-01,3.20e-01,-4.00e-01,
421,-7.20e-01,4.00e-01,-3.20e-01,
422,-6.40e-01,3.60e-01,-4.00e-01,
423,-8.00e-01,2.80e-01,-3.20e-01,
424,-6.40e-01,2.80e-01,-3.60e-01,
425,-8.80e-01,3.20e-01,-2.80e-01,
426,-7.20e-01,3.20e-01,-3.60e-01,
427,-8.80e-01,2.00e-01,-2.80e-01,
428,-8.00e-01,2.00e-01,-3.20e-01,
429,-9.60e-01,2.40e-01,-2.00e-01,
430,-8.00e-01,2.40e-01,-3.20e-01,
431,-1.04e+00,1.60e-01,-2.00e-01,
432,-8.80e-01,1.60e-01,-2.40e-01,
433,-1.04e+00,2.00e-01,-1.60e-01,
434,-8.80e-01,2.00e-01,-2.40e-01,
435,-1.20e+00,1.20e-01,-1.60e-01,
436,-1.04e+00,1.20e-01,-2.00e-01,
437,-1.20e+00,2.00e-01,-1.20e-01,
438,-1.04e+00,1.60e-01,-1.20e-01,
439,-1.28e+00,8.00e-02,-2.00e-01,
440,-1.12e+00,1.60e-01,-1.60e-01,
441,-1.28e+00,8.00e-02,-8.00e-02,
442,-1.20e+00,1.20e-01,-1.20e-01,
443,-1.36e+00,4.00e-02,-8.00e-02,
444,-1.20e+00,4.00e-02,-1.20e-01,
445,-1.36e+00,1.20e-01,-4.00e-02,
446,-1.28e+00,8.00e-02,-4.00e-02,
447,-1.44e+00,-4.00e-02,-1.20e-01,
448,-1.44e+00,4.00e-02,-8.00e-02,
449,-1.28e+00,-4.00e-02,0.00e+00,
450,-1.28e+00,0.00e+00,-8.00e-02,
451,-1.60e+00,-8.00e-02,4.00e-02,
452,-1.36e+00,-8.00e-02,0.00e+00,
453,-1.60e+00,-4.00e-02,8.00e-02,
454,-1.44e+00,-4.00e-02,0.00e+00,
455,-1.68e+00,-1.20e-01,8.00e-02,
456,-1.52e+00,-4.00e-02,4.00e-02,
457,-1.68e+00,-1.20e-01,1.20e-01,
458,-1.52e+00,-8.00e-02,4.00e-02,
459,-1.76e+00,-1.60e-01,1.20e-01,
460,-1.60e+00,-1.60e-01,8.00e-02,
461,-1.76e+00,-1.20e-01,1.60e-01,
462,-1.76e+00,-1.20e-01,8.00e-02,
463,-1.60e+00,-2.00e-01,1.60e-01,
464,-1.60e+00,-2.00e-01,1.20e-01,
465,-1.84e+00,-2.00e-01,2.00e-01,
466,-1.68e+00,-2.00e-01,2.00e-01,
467,-1.84e+00,-2.80e-01,1.20e-01,
468,-1.84e+00,-2.40e-01,1.60e-01,
469,-1.68e+00,-2.80e-01,2.40e-01,
470,-1.84e+00,-2.40e-01,1.60e-01,
471,-1.68e+00,-3.20e-01,2.80e-01,
472,-1.76e+00,-3.20e-01,2.40e-01,
473,-1.92e+00,-2.80e-01,2.80e-01,
474,-1.92e+00,-2.80e-01,2.40e-01,
475,-1.76e+00,-3.60e-01,3.20e-01,
476,-1.92e+00,-3.60e-01,2.80e-01,
477,-1.76e+00,-3.20e-01,3.20e-01,
478,-1.76e+00,-3.20e-01,2.80e-01,
479,-2.00e+00,-4.00e-01,3.60e-01,
480,-1.84e+00,-3.60e-01,3.60e-01,
481,-2.00e+00,-4.00e-01,3.20e-01,
482,-1.60e+00,-3.60e-01,4.00e-01,
483,-2.24e+00,-4.40e-01,3.20e-01,
484,-1.84e+00,-4.80e-01,3.20e-01,
485,-2.08e+00,-3.60e-01,4.00e-01,
486,-1.84e+00,-4.40e-01,3.60e-01,
487,-2.08e+00,-5.20e-01,4.40e-01,
488,-1.84e+00,-5.20e-01,3.60e-01,
489,-2.08e+00,-4.40e-01,4.40e-01,
490,-2.08e+00,-4.80e-01,4.00e-01,
491,-1.84e+00,-5.60e-01,4.40e-01,
492,-2.16e+00,-5.60e-01,4.00e-01,
493,-1.92e+00,-4.80e-01,5.20e-01,
494,-2.16e+00,-5.20e-01,4.40e-01,
495,-1.92e+00,-6.00e-01,5.20e-01,
496,-2.00e+00,-5.20e-01,4.80e-01,
497,-2.16e+00,-6.00e-01,5.60e-01,
498,-2.00e+00,-5.60e-01,4.80e-01,
499,-2.16e+00,-6.00e-01,5.60e-01,
500,-2.00e+00,-5.60e-01,5.20e-01,
501,-2.16e+00,-6.40e-01,5.60e-01,
502,-2.00e+00,-5.60e-01,5.20e-01,
503,-2.16e+00,-6.40e-01,5.60e-01,
504,-2.00e+00,-6.40e-01,5.20e-01,
505,-2.16e+00,-6.00e-01,6.00e-01,
506,-2.00e+00,-6.00e-01,6.00e-01,
507,-2.16e+00,-7.20e-01,5.60e-01,
508,-2.16e+00,-6.00e-01,5.60e-01,
509,-1.84e+00,-7.20e-01,6.40e-01,
510,-1.84e+00,-6.80e-01,5.60e-01,
511,-2.08e+00,-7.20e-01,6.40e-01,
512,-1.92e+00,-6.80e-01,6.40e-01,
513,-2.08e+00,-7.60e-01,5.60e-01,
514,-2.08e+00,-6.80e-01,6.40e-01,
515,-1.84e+00,-7.60e-01,6.00e-01,
516,-1.84e+00,-7.60e-01,6.00e-01,
517,-2.08e+00,-7.20e-01,6.80e-01,
518,-2.08e+00,-7.20e-01,6.00e-01,
519,-1.84e+00,-7.60e-01,6.80e-01,
520,-2.08e+00,-7.20e-01,6.80e-01,
521,-1.84e+00,-8.00e-01,6.00e-01,
522,-2.00e+00,-7.60e-01,6.80e-01,
523,-1.76e+00,-8.00e-01,6.40e-01,
524,-1.92e+00,-8.00e-01,6.80e-01,
525,-1.76e+00,-7.60e-01,6.40e-01,
526,-1.92e+00,-7.60e-01,6.80e-01,
527,-1.76e+00,-8.40e-01,6.40e-01,
528,-1.92e+00,-7.60e-01,6.40e-01,
529,-1.76e+00,-8.40e-01,7.60e-01,
530,-1.92e+00,-8.40e-01,6.40e-01,
531,-1.68e+00,-7.60e-01,7.60e-01,
532,-1.84e+00,-8.40e-01,7.60e-01,
533,-1.68e+00,-7.60e-01,6.40e-01,
534,-1.68e+00,-8.00e-01,6.80e-01,
535,-1.84e+00,-8.40e-01,7.60e-01,
536,-1.84e+00,-8.00e-01,7.20e-01,
537,-1.68e+00,-8.40e-01,7.60e-01,
538,-1.76e+00,-8.40e-01,7.20e-01,
539,-1.60e+00,-8.00e-01,7.60e-01,
540,-1.76e+00,-8.00e-01,7.20e-01,
541,-1.60e+00,-8.80e-01,7.60e-01,
542,-1.76e+00,-8.00e-01,7.20e-01,
543,-1.52e+00,-8.80e-01,7.60e-01,
544,-1.68e+00,-8.80e-01,7.20e-01,
545,-1.52e+00,-8.00e-01,8.00e-01,
546,-1.68e+00,-8.00e-01,7.20e-01,
547,-1.44e+00,-8.80e-01,8.00e-01,
548,-1.60e+00,-8.80e-01,7.20e-01,
549,-1.36e+00,-8.40e-01,8.00e-01,
550,-1.36e+00,-8.80e-01,7.20e-01,
551,-1.60e+00,-8.00e-01,8.00e-01,
552,-1.36e+00,-8.80e-01,7.20e-01,
553,-1.52e+00,-8.00e-01,8.00e-01,
554,-1.28e+00,-8.80e-01,7.20e-01,
555,-1.44e+00,-8.40e-01,8.00e-01,
556,-1.44e+00,-8.80e-01,7.20e-01,
557,-1.20e+00,-8.40e-01,8.00e-01,
558,-1.20e+00,-8.80e-01,7.20e-01,
559,-1.36e+00,-8.40e-01,8.00e-01,
560,-1.36e+00,-8.80e-01,7.20e-01,
561,-1.12e+00,-8.00e-01,7.60e-01,
562,-1.12e+00,-8.00e-01,7.20e-01,
563,-1.28e+00,-8.80e-01,7.60e-01,
564,-1.20e+00,-8.80e-01,7.20e-01,
565,-1.04e+00,-8.00e-01,7.60e-01,
566,-1.20e+00,-8.80e-01,7.20e-01,
567,-8.80e-01,-8.00e-01,7.60e-01,
568,-1.04e+00,-8.80e-01,7.60e-01,
569,-8.80e-01,-8.00e-01,6.80e-01,
570,-1.04e+00,-8.40e-01,6.80e-01,
571,-8.00e-01,-8.00e-01,7.60e-01,
572,-9.60e-01,-8.40e-01,6.40e-01,
573,-8.00e-01,-8.00e-01,7.60e-01,
574,-9.60e-01,-8.00e-01,6.40e-01,
575,-7.20e-01,-8.40e-01,7.20e-01,
576,-8.80e-01,-8.40e-01,6.80e-01,
577,-7.20e-01,-7.60e-01,6.40e-01,
578,-6.40e-01,-8.40e-01,6.80e-01,
579,-8.80e-01,-7.60e-01,6.40e-01,
580,-8.00e-01,-8.40e-01,6.80e-01,
581,-5.60e-01,-7.60e-01,6.00e-01,
582,-7.20e-01,-8.00e-01,6.00e-01,
583,-4.80e-01,-7.60e-01,6.80e-01,
584,-7.20e-01,-7.60e-01,6.40e-01,
585,-4.00e-01,-8.00e-01,6.00e-01,
586,-5.60e-01,-8.00e-01,6.40e-01,
587,-4.00e-01,-7.20e-01,5.60e-01,
588,-3.20e-01,-7.20e-01,6.40e-01,
589,-5.60e-01,-8.00e-01,5.60e-01,
590,-4.80e-01,-7.20e-01,6.40e-01,
591,-2.40e-01,-7.60e-01,5.60e-01,
592,-4.00e-01,-7.20e-01,6.00e-01,
593,-2.40e-01,-7.60e-01,5.60e-01,
