Data/QM2/Teil 1/oszi/90deg-2450.csv

X,CH1,CH2,CH3,Start,Increment,
Sequence,Volt,Volt,Volt,-6.000000e-04,1.000000e-06
0,-4.00e-01,5.20e-01,-5.60e-01,
1,0.00e+00,4.00e-01,-4.40e-01,
2,-4.00e-01,4.40e-01,-4.80e-01,
3,0.00e+00,3.60e-01,-4.00e-01,
4,0.00e+00,3.60e-01,-4.80e-01,
5,-8.00e-01,4.40e-01,-3.60e-01,
6,-8.00e-01,4.00e-01,-4.40e-01,
7,-4.00e-01,3.20e-01,-3.60e-01,
8,-2.00e-01,3.60e-01,-4.00e-01,
9,-1.00e+00,2.80e-01,-3.20e-01,
10,-1.00e+00,2.80e-01,-3.60e-01,
11,-4.00e-01,3.60e-01,-3.20e-01,
12,-1.00e+00,3.20e-01,-3.60e-01,
13,-6.00e-01,2.40e-01,-2.80e-01,
14,-1.00e+00,2.40e-01,-3.20e-01,
15,-6.00e-01,2.80e-01,-2.40e-01,
16,-1.40e+00,2.40e-01,-2.80e-01,
17,-8.00e-01,1.60e-01,-2.00e-01,
18,-8.00e-01,2.00e-01,-2.40e-01,
19,-1.40e+00,1.20e-01,-1.60e-01,
20,-1.40e+00,1.60e-01,-2.00e-01,
21,-8.00e-01,1.20e-01,-1.20e-01,
22,-1.40e+00,1.60e-01,-2.00e-01,
23,-1.00e+00,8.00e-02,-8.00e-02,
24,-1.00e+00,1.20e-01,-1.60e-01,
25,-1.60e+00,4.00e-02,-8.00e-02,
26,-1.60e+00,1.20e-01,-1.20e-01,
27,-1.20e+00,0.00e+00,-4.00e-02,
28,-1.60e+00,8.00e-02,-1.20e-01,
29,-1.20e+00,0.00e+00,0.00e+00,
30,-1.60e+00,0.00e+00,-8.00e-02,
31,-1.20e+00,-8.00e-02,4.00e-02,
32,-2.00e+00,-8.00e-02,0.00e+00,
33,-1.20e+00,-4.00e-02,8.00e-02,
34,-2.00e+00,-4.00e-02,0.00e+00,
35,-1.60e+00,-1.20e-01,8.00e-02,
36,-2.00e+00,-8.00e-02,4.00e-02,
37,-1.40e+00,-1.60e-01,1.20e-01,
38,-2.00e+00,-1.20e-01,8.00e-02,
39,-1.40e+00,-2.00e-01,1.60e-01,
40,-1.60e+00,-1.60e-01,8.00e-02,
41,-2.20e+00,-2.00e-01,1.60e-01,
42,-1.60e+00,-1.60e-01,1.20e-01,
43,-2.20e+00,-2.40e-01,2.00e-01,
44,-2.20e+00,-2.40e-01,1.60e-01,
45,-1.80e+00,-3.20e-01,2.40e-01,
46,-1.80e+00,-2.40e-01,2.80e-01,
47,-2.20e+00,-3.20e-01,1.60e-01,
48,-1.80e+00,-2.80e-01,2.40e-01,
49,-2.60e+00,-3.60e-01,3.20e-01,
50,-2.60e+00,-3.60e-01,2.80e-01,
51,-1.80e+00,-3.20e-01,3.60e-01,
52,-2.60e+00,-4.00e-01,2.80e-01,
53,-2.20e+00,-3.20e-01,3.60e-01,
54,-2.60e+00,-4.40e-01,3.20e-01,
55,-2.00e+00,-3.60e-01,4.00e-01,
56,-2.60e+00,-4.00e-01,4.00e-01,
57,-2.00e+00,-4.80e-01,3.20e-01,
58,-2.60e+00,-5.20e-01,3.60e-01,
59,-2.00e+00,-4.00e-01,4.40e-01,
60,-2.60e+00,-4.80e-01,4.40e-01,
61,-2.00e+00,-5.60e-01,4.00e-01,
62,-2.40e+00,-5.20e-01,4.00e-01,
63,-2.80e+00,-5.60e-01,5.20e-01,
64,-2.40e+00,-5.20e-01,4.80e-01,
65,-2.80e+00,-6.00e-01,5.60e-01,
66,-2.40e+00,-5.60e-01,5.60e-01,
67,-2.80e+00,-6.40e-01,4.80e-01,
68,-2.80e+00,-6.40e-01,5.20e-01,
69,-2.40e+00,-5.60e-01,6.00e-01,
70,-2.80e+00,-6.00e-01,6.00e-01,
71,-2.40e+00,-6.80e-01,5.20e-01,
72,-2.80e+00,-6.80e-01,5.60e-01,
73,-2.40e+00,-6.40e-01,6.40e-01,
74,-2.80e+00,-6.80e-01,6.40e-01,
75,-2.40e+00,-7.60e-01,5.60e-01,
76,-2.40e+00,-7.20e-01,6.00e-01,
77,-3.00e+00,-7.60e-01,6.80e-01,
78,-2.40e+00,-7.20e-01,6.80e-01,
79,-3.20e+00,-8.00e-01,6.00e-01,
80,-3.20e+00,-7.60e-01,6.40e-01,
81,-2.40e+00,-8.00e-01,7.60e-01,
82,-3.20e+00,-7.60e-01,6.40e-01,
83,-2.40e+00,-8.40e-01,7.60e-01,
84,-2.60e+00,-8.40e-01,6.80e-01,
85,-3.20e+00,-8.00e-01,7.60e-01,
86,-2.60e+00,-8.00e-01,7.20e-01,
87,-3.20e+00,-8.80e-01,8.00e-01,
88,-2.80e+00,-8.40e-01,7.20e-01,
89,-3.20e+00,-8.80e-01,8.00e-01,
90,-3.20e+00,-8.40e-01,7.60e-01,
91,-2.60e+00,-9.20e-01,8.40e-01,
92,-3.20e+00,-9.20e-01,7.60e-01,
93,-2.60e+00,-8.80e-01,8.40e-01,
94,-3.20e+00,-8.80e-01,8.40e-01,
95,-2.60e+00,-1.00e+00,8.00e-01,
96,-3.20e+00,-9.20e-01,8.00e-01,
97,-2.80e+00,-1.00e+00,8.80e-01,
98,-2.60e+00,-9.60e-01,8.80e-01,
99,-3.20e+00,-1.00e+00,8.00e-01,
100,-3.20e+00,-9.60e-01,8.80e-01,
101,-2.60e+00,-1.04e+00,8.40e-01,
102,-3.20e+00,-1.04e+00,8.40e-01,
103,-2.60e+00,-1.00e+00,9.20e-01,
104,-3.20e+00,-1.00e+00,9.20e-01,
105,-2.60e+00,-1.04e+00,8.40e-01,
106,-3.20e+00,-1.00e+00,9.20e-01,
107,-2.40e+00,-1.08e+00,8.80e-01,
108,-3.20e+00,-1.00e+00,9.20e-01,
109,-2.40e+00,-1.08e+00,8.80e-01,
110,-2.40e+00,-1.08e+00,8.80e-01,
111,-3.20e+00,-1.04e+00,9.60e-01,
112,-2.40e+00,-1.04e+00,8.80e-01,
113,-3.00e+00,-1.12e+00,1.00e+00,
114,-2.80e+00,-1.04e+00,1.00e+00,
115,-2.40e+00,-1.12e+00,8.80e-01,
116,-2.80e+00,-1.12e+00,1.00e+00,
117,-2.40e+00,-1.04e+00,9.20e-01,
118,-2.80e+00,-1.12e+00,9.60e-01,
119,-2.40e+00,-1.08e+00,1.00e+00,
120,-2.80e+00,-1.12e+00,9.60e-01,
121,-2.40e+00,-1.08e+00,1.00e+00,
122,-2.80e+00,-1.12e+00,1.00e+00,
123,-2.40e+00,-1.08e+00,9.60e-01,
124,-2.40e+00,-1.08e+00,9.60e-01,
125,-2.80e+00,-1.16e+00,1.00e+00,
126,-2.80e+00,-1.08e+00,9.60e-01,
127,-2.20e+00,-1.16e+00,1.00e+00,
128,-2.60e+00,-1.08e+00,9.60e-01,
129,-2.00e+00,-1.16e+00,1.00e+00,
130,-2.60e+00,-1.16e+00,9.60e-01,
131,-2.20e+00,-1.08e+00,1.00e+00,
132,-2.60e+00,-1.16e+00,9.60e-01,
133,-2.20e+00,-1.08e+00,1.00e+00,
134,-2.60e+00,-1.16e+00,9.60e-01,
135,-2.00e+00,-1.08e+00,1.00e+00,
136,-2.60e+00,-1.16e+00,1.00e+00,
137,-2.00e+00,-1.08e+00,9.60e-01,
138,-2.60e+00,-1.16e+00,9.60e-01,
139,-1.80e+00,-1.08e+00,1.00e+00,
140,-2.20e+00,-1.16e+00,1.00e+00,
141,-1.80e+00,-1.08e+00,9.60e-01,
142,-1.80e+00,-1.08e+00,9.60e-01,
143,-2.20e+00,-1.16e+00,1.00e+00,
144,-2.20e+00,-1.16e+00,9.60e-01,
145,-1.80e+00,-1.08e+00,1.00e+00,
146,-2.20e+00,-1.08e+00,1.00e+00,
147,-1.60e+00,-1.12e+00,8.80e-01,
148,-2.20e+00,-1.12e+00,1.00e+00,
149,-1.60e+00,-1.08e+00,8.80e-01,
150,-2.00e+00,-1.12e+00,9.60e-01,
151,-1.40e+00,-1.08e+00,8.80e-01,
152,-1.60e+00,-1.12e+00,9.20e-01,
153,-2.00e+00,-1.04e+00,8.80e-01,
154,-2.00e+00,-1.12e+00,9.20e-01,
155,-1.40e+00,-1.04e+00,8.40e-01,
156,-2.00e+00,-1.04e+00,8.40e-01,
157,-1.20e+00,-1.12e+00,9.20e-01,
158,-1.60e+00,-1.04e+00,8.40e-01,
159,-1.20e+00,-1.08e+00,9.20e-01,
160,-1.60e+00,-1.08e+00,8.80e-01,
161,-1.20e+00,-1.04e+00,8.40e-01,
162,-1.60e+00,-1.08e+00,8.80e-01,
163,-1.00e+00,-1.00e+00,8.00e-01,
164,-1.60e+00,-1.08e+00,8.80e-01,
165,-8.00e-01,-1.00e+00,8.00e-01,
166,-1.40e+00,-1.00e+00,8.00e-01,
167,-1.00e+00,-1.04e+00,8.40e-01,
168,-1.00e+00,-1.04e+00,8.40e-01,
169,-1.40e+00,-9.60e-01,7.60e-01,
170,-1.40e+00,-9.60e-01,7.60e-01,
171,-1.00e+00,-1.00e+00,8.40e-01,
172,-1.00e+00,-9.60e-01,8.00e-01,
173,-6.00e-01,-1.00e+00,7.60e-01,
174,-1.00e+00,-1.00e+00,8.00e-01,
175,-6.00e-01,-8.80e-01,7.20e-01,
176,-1.00e+00,-9.20e-01,7.20e-01,
177,-6.00e-01,-8.80e-01,8.00e-01,
178,-1.00e+00,-9.20e-01,7.60e-01,
179,-2.00e-01,-8.40e-01,6.40e-01,
180,-4.00e-01,-9.20e-01,7.20e-01,
181,-8.00e-01,-8.40e-01,6.40e-01,
182,-8.00e-01,-8.80e-01,6.80e-01,
183,0.00e+00,-8.00e-01,6.00e-01,
184,-8.00e-01,-8.80e-01,6.80e-01,
185,0.00e+00,-8.00e-01,6.00e-01,
186,-4.00e-01,-8.40e-01,6.40e-01,
187,0.00e+00,-7.60e-01,5.60e-01,
188,-4.00e-01,-7.60e-01,6.40e-01,
189,0.00e+00,-8.40e-01,5.60e-01,
190,-4.00e-01,-8.00e-01,6.00e-01,
191,2.00e-01,-7.20e-01,5.20e-01,
192,2.00e-01,-7.20e-01,6.00e-01,
193,-2.00e-01,-8.00e-01,5.20e-01,
194,2.00e-01,-7.60e-01,5.60e-01,
195,-2.00e-01,-6.80e-01,4.80e-01,
196,-2.00e-01,-7.20e-01,4.80e-01,
197,6.00e-01,-6.40e-01,5.60e-01,
198,6.00e-01,-6.80e-01,5.20e-01,
199,-2.00e-01,-6.00e-01,4.40e-01,
200,2.00e-01,-6.40e-01,4.40e-01,
201,6.00e-01,-6.00e-01,4.00e-01,
202,2.00e-01,-6.40e-01,4.40e-01,
203,6.00e-01,-5.60e-01,3.60e-01,
204,2.00e-01,-6.00e-01,4.00e-01,
205,8.00e-01,-5.20e-01,3.20e-01,
206,8.00e-01,-6.00e-01,4.00e-01,
207,4.00e-01,-5.20e-01,3.20e-01,
208,8.00e-01,-5.60e-01,3.60e-01,
209,4.00e-01,-4.80e-01,2.80e-01,
210,4.00e-01,-5.20e-01,3.20e-01,
211,1.20e+00,-4.40e-01,2.80e-01,
212,8.00e-01,-4.00e-01,2.40e-01,
213,1.20e+00,-5.20e-01,3.20e-01,
214,8.00e-01,-4.40e-01,2.80e-01,
215,1.40e+00,-3.60e-01,1.60e-01,
216,8.00e-01,-3.60e-01,2.00e-01,
217,1.40e+00,-4.40e-01,1.60e-01,
218,1.00e+00,-4.00e-01,2.00e-01,
219,1.40e+00,-3.20e-01,1.20e-01,
220,1.00e+00,-3.60e-01,1.20e-01,
221,1.40e+00,-2.80e-01,1.60e-01,
222,1.00e+00,-3.60e-01,8.00e-02,
223,1.40e+00,-2.40e-01,1.60e-01,
224,1.20e+00,-3.20e-01,1.20e-01,
225,1.80e+00,-2.40e-01,4.00e-02,
226,1.80e+00,-2.40e-01,8.00e-02,
227,1.20e+00,-1.60e-01,0.00e+00,
228,1.40e+00,-2.00e-01,8.00e-02,
229,1.80e+00,-1.60e-01,0.00e+00,
230,1.40e+00,-2.00e-01,4.00e-02,
231,2.00e+00,-1.20e-01,-8.00e-02,
232,2.00e+00,-1.60e-01,0.00e+00,
233,1.60e+00,-8.00e-02,-8.00e-02,
234,2.00e+00,-8.00e-02,-4.00e-02,
235,1.60e+00,-1.20e-01,-1.20e-01,
236,1.60e+00,-1.20e-01,-8.00e-02,
237,2.00e+00,-4.00e-02,-1.60e-01,
238,1.60e+00,-8.00e-02,-1.60e-01,
239,2.40e+00,4.00e-02,-8.00e-02,
240,2.00e+00,-4.00e-02,-1.20e-01,
241,2.40e+00,4.00e-02,-2.00e-01,
242,2.00e+00,0.00e+00,-1.60e-01,
243,2.40e+00,8.00e-02,-2.40e-01,
244,2.40e+00,4.00e-02,-2.40e-01,
245,1.80e+00,1.20e-01,-1.60e-01,
246,1.80e+00,1.20e-01,-2.40e-01,
247,2.60e+00,8.00e-02,-3.20e-01,
248,1.80e+00,8.00e-02,-2.80e-01,
249,2.60e+00,1.60e-01,-3.60e-01,
250,2.00e+00,1.20e-01,-3.20e-01,
251,2.60e+00,2.00e-01,-3.60e-01,
252,2.60e+00,1.60e-01,-3.20e-01,
253,2.20e+00,2.40e-01,-4.00e-01,
254,2.20e+00,1.60e-01,-3.60e-01,
255,2.60e+00,2.80e-01,-4.40e-01,
256,2.20e+00,2.40e-01,-3.60e-01,
257,2.60e+00,3.20e-01,-4.40e-01,
258,2.20e+00,3.20e-01,-4.00e-01,
259,3.00e+00,2.80e-01,-4.80e-01,
260,3.00e+00,2.80e-01,-4.80e-01,
261,2.20e+00,3.60e-01,-4.40e-01,
262,3.00e+00,3.20e-01,-4.40e-01,
263,2.60e+00,4.00e-01,-5.60e-01,
264,2.60e+00,4.00e-01,-5.20e-01,
265,3.00e+00,3.60e-01,-6.00e-01,
266,3.00e+00,3.60e-01,-6.00e-01,
267,2.40e+00,4.40e-01,-5.20e-01,
268,2.40e+00,4.00e-01,-5.60e-01,
269,3.00e+00,5.20e-01,-6.40e-01,
270,2.60e+00,4.00e-01,-6.40e-01,
271,3.20e+00,5.20e-01,-5.60e-01,
272,2.60e+00,4.80e-01,-6.00e-01,
273,3.20e+00,5.60e-01,-6.80e-01,
274,2.80e+00,5.60e-01,-6.80e-01,
275,3.20e+00,4.80e-01,-6.40e-01,
276,2.80e+00,5.20e-01,-6.40e-01,
277,3.20e+00,6.00e-01,-7.20e-01,
278,2.80e+00,5.60e-01,-6.40e-01,
279,3.20e+00,6.00e-01,-7.20e-01,
280,3.20e+00,5.60e-01,-8.00e-01,
281,2.80e+00,6.40e-01,-6.80e-01,
282,3.20e+00,6.00e-01,-7.60e-01,
283,2.80e+00,6.80e-01,-8.00e-01,
284,3.20e+00,6.80e-01,-7.60e-01,
285,2.80e+00,6.00e-01,-8.40e-01,
286,3.20e+00,6.80e-01,-7.60e-01,
287,2.80e+00,6.80e-01,-8.40e-01,
288,2.80e+00,6.80e-01,-8.00e-01,
289,3.20e+00,7.60e-01,-8.80e-01,
290,2.80e+00,7.20e-01,-8.80e-01,
291,3.20e+00,7.60e-01,-8.00e-01,
292,3.20e+00,7.20e-01,-8.80e-01,
293,2.80e+00,8.00e-01,-8.40e-01,
294,3.20e+00,7.20e-01,-8.40e-01,
295,2.80e+00,8.00e-01,-9.20e-01,
296,2.80e+00,7.60e-01,-8.80e-01,
297,3.20e+00,8.40e-01,-9.20e-01,
298,2.80e+00,8.40e-01,-8.80e-01,
299,3.20e+00,7.60e-01,-9.60e-01,
300,3.20e+00,8.40e-01,-9.60e-01,
301,2.80e+00,8.00e-01,-8.80e-01,
302,2.80e+00,8.00e-01,-9.60e-01,
303,3.40e+00,8.80e-01,-9.20e-01,
304,2.80e+00,8.80e-01,-9.20e-01,
305,3.20e+00,8.40e-01,-1.04e+00,
306,3.20e+00,8.80e-01,-1.04e+00,
307,2.80e+00,8.40e-01,-9.20e-01,
308,2.80e+00,9.60e-01,-9.60e-01,
309,3.20e+00,8.40e-01,-1.04e+00,
310,3.20e+00,9.20e-01,-1.04e+00,
311,2.80e+00,9.60e-01,-1.00e+00,
312,2.80e+00,9.20e-01,-1.00e+00,
313,3.20e+00,9.60e-01,-1.04e+00,
314,2.80e+00,9.20e-01,-1.00e+00,
315,3.20e+00,1.00e+00,-1.08e+00,
316,3.20e+00,9.20e-01,-1.00e+00,
317,2.80e+00,1.00e+00,-1.08e+00,
318,3.20e+00,1.00e+00,-1.04e+00,
319,2.80e+00,9.20e-01,-1.08e+00,
320,3.20e+00,9.60e-01,-1.04e+00,
321,2.80e+00,1.00e+00,-1.08e+00,
322,2.80e+00,9.60e-01,-1.04e+00,
323,3.20e+00,1.00e+00,-1.08e+00,
324,2.60e+00,9.60e-01,-1.04e+00,
325,3.20e+00,1.04e+00,-1.08e+00,
326,3.00e+00,9.60e-01,-1.04e+00,
327,2.60e+00,1.04e+00,-1.12e+00,
328,3.00e+00,9.60e-01,-1.04e+00,
329,2.40e+00,1.04e+00,-1.12e+00,
330,3.00e+00,1.04e+00,-1.04e+00,
331,2.40e+00,9.60e-01,-1.12e+00,
332,3.00e+00,1.00e+00,-1.12e+00,
333,2.40e+00,1.04e+00,-1.04e+00,
334,3.00e+00,1.04e+00,-1.12e+00,
335,2.40e+00,9.60e-01,-1.04e+00,
336,3.00e+00,1.04e+00,-1.04e+00,
337,2.20e+00,1.00e+00,-1.12e+00,
338,2.20e+00,1.04e+00,-1.04e+00,
339,2.80e+00,1.00e+00,-1.12e+00,
340,2.20e+00,1.00e+00,-1.04e+00,
341,2.60e+00,1.04e+00,-1.12e+00,
342,2.20e+00,1.00e+00,-1.04e+00,
343,2.60e+00,1.04e+00,-1.12e+00,
344,2.20e+00,1.04e+00,-1.08e+00,
345,2.60e+00,9.60e-01,-1.04e+00,
346,2.60e+00,1.04e+00,-1.04e+00,
347,2.00e+00,9.60e-01,-1.08e+00,
348,2.60e+00,1.04e+00,-1.04e+00,
349,2.00e+00,9.60e-01,-1.08e+00,
350,2.40e+00,9.60e-01,-1.04e+00,
351,1.80e+00,1.04e+00,-1.08e+00,
352,2.40e+00,9.60e-01,-1.08e+00,
353,1.80e+00,1.04e+00,-1.00e+00,
354,2.40e+00,9.60e-01,-1.00e+00,
355,1.80e+00,1.00e+00,-1.08e+00,
356,2.40e+00,9.60e-01,-1.00e+00,
357,1.60e+00,1.00e+00,-1.04e+00,
358,2.00e+00,9.60e-01,-1.04e+00,
359,1.60e+00,1.00e+00,-1.00e+00,
360,2.00e+00,1.00e+00,-1.04e+00,
361,1.60e+00,9.20e-01,-9.60e-01,
362,1.60e+00,9.20e-01,-1.04e+00,
363,2.00e+00,1.00e+00,-9.20e-01,
364,2.00e+00,9.20e-01,-1.04e+00,
365,1.40e+00,9.60e-01,-9.20e-01,
366,1.80e+00,9.20e-01,-9.60e-01,
367,1.20e+00,9.60e-01,-9.60e-01,
368,1.40e+00,9.20e-01,-9.60e-01,
369,1.80e+00,8.40e-01,-8.80e-01,
370,1.80e+00,9.20e-01,-8.80e-01,
371,1.40e+00,8.40e-01,-9.60e-01,
372,1.80e+00,8.80e-01,-8.80e-01,
373,1.00e+00,8.00e-01,-9.20e-01,
374,1.40e+00,8.80e-01,-9.20e-01,
375,1.00e+00,8.00e-01,-8.40e-01,
376,1.40e+00,8.00e-01,-8.80e-01,
377,1.00e+00,8.80e-01,-8.40e-01,
378,1.40e+00,8.40e-01,-8.80e-01,
379,8.00e-01,7.60e-01,-8.00e-01,
380,8.00e-01,8.40e-01,-8.80e-01,
381,1.20e+00,7.60e-01,-8.00e-01,
382,8.00e-01,7.60e-01,-8.00e-01,
383,1.20e+00,8.00e-01,-8.40e-01,
384,1.20e+00,8.00e-01,-8.40e-01,
385,4.00e-01,7.20e-01,-7.60e-01,
386,1.20e+00,8.00e-01,-7.60e-01,
387,4.00e-01,7.20e-01,-8.00e-01,
388,4.00e-01,7.60e-01,-8.00e-01,
389,8.00e-01,6.80e-01,-6.80e-01,
390,8.00e-01,7.60e-01,-7.20e-01,
391,4.00e-01,6.80e-01,-6.80e-01,
392,8.00e-01,6.80e-01,-7.20e-01,
393,2.00e-01,6.00e-01,-6.40e-01,
394,2.00e-01,6.80e-01,-6.80e-01,
395,6.00e-01,6.00e-01,-6.40e-01,
396,2.00e-01,6.40e-01,-6.80e-01,
397,6.00e-01,5.60e-01,-6.00e-01,
398,-2.00e-01,6.40e-01,-6.80e-01,
399,6.00e-01,5.60e-01,-6.00e-01,
400,2.00e-01,6.00e-01,-6.40e-01,
401,-2.00e-01,5.20e-01,-5.60e-01,
402,-2.00e-01,6.00e-01,-5.60e-01,
403,2.00e-01,5.20e-01,-6.00e-01,
404,2.00e-01,5.60e-01,-5.20e-01,
405,-4.00e-01,4.80e-01,-6.00e-01,
406,-4.00e-01,5.20e-01,-5.60e-01,
407,0.00e+00,4.40e-01,-4.40e-01,
408,-4.00e-01,5.20e-01,-5.20e-01,
409,0.00e+00,4.00e-01,-4.40e-01,
410,0.00e+00,4.40e-01,-4.80e-01,
411,-8.00e-01,3.60e-01,-4.00e-01,
412,0.00e+00,4.40e-01,-4.40e-01,
413,-8.00e-01,3.60e-01,-3.60e-01,
414,-2.00e-01,4.00e-01,-3.60e-01,
415,-8.00e-01,3.20e-01,-4.40e-01,
416,-4.00e-01,3.60e-01,-4.00e-01,
417,-1.00e+00,2.80e-01,-3.20e-01,
418,-4.00e-01,3.60e-01,-3.60e-01,
419,-1.20e+00,2.40e-01,-2.80e-01,
420,-1.00e+00,3.20e-01,-3.60e-01,
421,-6.00e-01,2.40e-01,-2.80e-01,
422,-1.00e+00,2.80e-01,-3.20e-01,
423,-6.00e-01,2.00e-01,-2.40e-01,
424,-6.00e-01,1.60e-01,-3.20e-01,
425,-1.40e+00,2.40e-01,-2.00e-01,
426,-1.40e+00,2.00e-01,-1.60e-01,
427,-8.00e-01,1.20e-01,-2.40e-01,
428,-1.40e+00,1.60e-01,-2.00e-01,
429,-1.00e+00,1.20e-01,-1.20e-01,
430,-1.40e+00,1.60e-01,-2.00e-01,
431,-1.00e+00,8.00e-02,-8.00e-02,
432,-1.00e+00,1.20e-01,-1.60e-01,
433,-1.60e+00,4.00e-02,-8.00e-02,
434,-1.60e+00,4.00e-02,-1.20e-01,
435,-1.20e+00,8.00e-02,-4.00e-02,
436,-1.60e+00,0.00e+00,-4.00e-02,
437,-1.20e+00,8.00e-02,-1.20e-01,
438,-1.20e+00,4.00e-02,-8.00e-02,
439,-1.80e+00,-8.00e-02,4.00e-02,
440,-1.60e+00,-4.00e-02,0.00e+00,
441,-2.00e+00,-1.20e-01,8.00e-02,
442,-2.00e+00,-4.00e-02,0.00e+00,
443,-1.40e+00,-1.20e-01,8.00e-02,
444,-2.00e+00,-8.00e-02,4.00e-02,
445,-1.40e+00,-1.60e-01,1.20e-01,
446,-1.40e+00,-1.20e-01,8.00e-02,
447,-2.20e+00,-2.00e-01,1.60e-01,
448,-1.60e+00,-2.00e-01,8.00e-02,
449,-2.20e+00,-1.20e-01,1.60e-01,
450,-2.20e+00,-1.60e-01,1.20e-01,
451,-1.60e+00,-2.40e-01,2.00e-01,
452,-2.20e+00,-2.40e-01,1.60e-01,
453,-1.80e+00,-2.80e-01,2.40e-01,
454,-2.20e+00,-2.40e-01,1.60e-01,
455,-1.80e+00,-3.20e-01,2.80e-01,
456,-1.80e+00,-2.80e-01,2.40e-01,
457,-2.40e+00,-3.60e-01,3.20e-01,
458,-2.60e+00,-3.20e-01,3.20e-01,
459,-1.80e+00,-4.00e-01,2.40e-01,
460,-2.00e+00,-4.00e-01,2.80e-01,
461,-2.60e+00,-3.20e-01,3.60e-01,
462,-2.60e+00,-3.60e-01,3.20e-01,
463,-2.00e+00,-4.40e-01,3.60e-01,
464,-2.60e+00,-4.00e-01,3.20e-01,
465,-2.00e+00,-5.20e-01,4.00e-01,
466,-2.20e+00,-5.20e-01,3.60e-01,
467,-2.60e+00,-4.00e-01,4.40e-01,
468,-2.20e+00,-4.80e-01,4.40e-01,
469,-2.80e+00,-5.60e-01,3.60e-01,
470,-2.40e+00,-5.20e-01,4.00e-01,
471,-2.80e+00,-6.00e-01,5.20e-01,
472,-2.80e+00,-5.20e-01,4.40e-01,
473,-2.40e+00,-6.00e-01,5.60e-01,
474,-2.80e+00,-5.60e-01,4.80e-01,
475,-2.40e+00,-6.40e-01,5.60e-01,
476,-2.80e+00,-5.60e-01,5.60e-01,
477,-2.40e+00,-6.40e-01,5.20e-01,
478,-2.40e+00,-6.00e-01,5.20e-01,
479,-2.80e+00,-6.80e-01,6.00e-01,
480,-2.80e+00,-6.80e-01,5.60e-01,
481,-2.40e+00,-6.40e-01,6.00e-01,
482,-2.80e+00,-6.40e-01,5.60e-01,
483,-2.40e+00,-7.60e-01,6.40e-01,
484,-2.80e+00,-7.20e-01,6.00e-01,
485,-2.40e+00,-7.60e-01,6.80e-01,
486,-2.40e+00,-7.20e-01,6.00e-01,
487,-3.20e+00,-8.00e-01,6.80e-01,
488,-2.40e+00,-7.20e-01,6.40e-01,
489,-3.20e+00,-8.40e-01,7.20e-01,
490,-3.20e+00,-7.60e-01,6.40e-01,
491,-2.40e+00,-8.40e-01,7.60e-01,
492,-3.20e+00,-8.40e-01,7.20e-01,
493,-2.40e+00,-8.00e-01,7.60e-01,
494,-3.20e+00,-8.00e-01,7.20e-01,
495,-2.40e+00,-8.80e-01,8.00e-01,
496,-2.60e+00,-8.40e-01,7.20e-01,
497,-3.20e+00,-8.80e-01,8.00e-01,
498,-3.20e+00,-8.40e-01,7.60e-01,
499,-2.60e+00,-9.20e-01,8.40e-01,
500,-3.20e+00,-8.80e-01,7.60e-01,
501,-2.60e+00,-9.20e-01,8.40e-01,
502,-3.20e+00,-8.80e-01,8.40e-01,
503,-2.60e+00,-1.00e+00,8.00e-01,
504,-2.60e+00,-9.20e-01,8.00e-01,
505,-3.20e+00,-1.00e+00,8.80e-01,
506,-3.20e+00,-9.60e-01,8.80e-01,
507,-2.60e+00,-1.00e+00,8.00e-01,
508,-3.20e+00,-9.60e-01,8.80e-01,
509,-2.60e+00,-1.04e+00,8.40e-01,
510,-3.20e+00,-9.60e-01,8.40e-01,
511,-2.40e+00,-1.04e+00,9.20e-01,
512,-3.20e+00,-1.00e+00,8.40e-01,
513,-2.60e+00,-1.04e+00,9.20e-01,
514,-2.40e+00,-1.00e+00,8.40e-01,
515,-3.20e+00,-1.08e+00,9.20e-01,
516,-2.40e+00,-1.00e+00,9.20e-01,
517,-3.20e+00,-1.08e+00,8.40e-01,
518,-2.40e+00,-1.04e+00,9.20e-01,
519,-3.00e+00,-1.08e+00,8.80e-01,
520,-2.40e+00,-1.04e+00,8.80e-01,
521,-3.20e+00,-1.12e+00,1.00e+00,
522,-2.80e+00,-1.04e+00,1.00e+00,
523,-2.40e+00,-1.12e+00,8.80e-01,
524,-2.80e+00,-1.04e+00,1.00e+00,
525,-2.40e+00,-1.12e+00,8.80e-01,
526,-2.80e+00,-1.12e+00,9.60e-01,
527,-2.40e+00,-1.08e+00,1.00e+00,
528,-2.80e+00,-1.12e+00,9.60e-01,
529,-2.40e+00,-1.08e+00,1.00e+00,
530,-2.40e+00,-1.12e+00,9.60e-01,
531,-2.80e+00,-1.08e+00,1.00e+00,
532,-2.80e+00,-1.08e+00,9.60e-01,
533,-2.40e+00,-1.16e+00,1.00e+00,
534,-2.80e+00,-1.16e+00,9.60e-01,
535,-2.20e+00,-1.08e+00,1.00e+00,
536,-2.80e+00,-1.08e+00,9.60e-01,
537,-2.20e+00,-1.16e+00,1.00e+00,
538,-2.60e+00,-1.08e+00,1.00e+00,
539,-2.20e+00,-1.16e+00,9.60e-01,
540,-2.60e+00,-1.16e+00,9.60e-01,
541,-2.00e+00,-1.08e+00,1.00e+00,
542,-2.60e+00,-1.16e+00,9.60e-01,
543,-2.00e+00,-1.08e+00,1.00e+00,
544,-2.00e+00,-1.16e+00,9.60e-01,
545,-2.60e+00,-1.08e+00,1.00e+00,
546,-2.60e+00,-1.16e+00,9.60e-01,
547,-1.80e+00,-1.08e+00,1.00e+00,
548,-2.60e+00,-1.08e+00,9.60e-01,
549,-1.80e+00,-1.16e+00,1.00e+00,
550,-1.80e+00,-1.08e+00,9.60e-01,
551,-2.20e+00,-1.16e+00,1.00e+00,
552,-2.20e+00,-1.08e+00,1.00e+00,
553,-1.80e+00,-1.16e+00,8.80e-01,
554,-2.20e+00,-1.08e+00,1.00e+00,
555,-1.80e+00,-1.16e+00,8.80e-01,
556,-2.20e+00,-1.08e+00,8.80e-01,
557,-1.60e+00,-1.12e+00,1.00e+00,
558,-2.00e+00,-1.12e+00,9.20e-01,
559,-1.60e+00,-1.08e+00,8.80e-01,
560,-2.00e+00,-1.12e+00,9.20e-01,
561,-1.40e+00,-1.04e+00,8.80e-01,
562,-1.60e+00,-1.04e+00,9.20e-01,
563,-2.00e+00,-1.12e+00,8.80e-01,
564,-1.20e+00,-1.04e+00,9.20e-01,
565,-1.80e+00,-1.12e+00,8.40e-01,
566,-1.20e+00,-1.08e+00,9.20e-01,
567,-1.60e+00,-1.04e+00,8.40e-01,
568,-1.60e+00,-1.08e+00,8.40e-01,
569,-1.20e+00,-1.00e+00,8.80e-01,
570,-1.60e+00,-1.00e+00,8.80e-01,
571,-1.00e+00,-1.08e+00,8.00e-01,
572,-1.40e+00,-1.08e+00,8.80e-01,
573,-1.00e+00,-1.00e+00,8.00e-01,
574,-1.40e+00,-1.04e+00,8.00e-01,
575,-1.00e+00,-1.00e+00,8.40e-01,
576,-8.00e-01,-1.04e+00,8.40e-01,
577,-1.40e+00,-9.60e-01,7.60e-01,
578,-1.40e+00,-9.60e-01,8.40e-01,
579,-8.00e-01,-1.04e+00,7.60e-01,
580,-1.00e+00,-1.00e+00,7.60e-01,
581,-6.00e-01,-9.20e-01,8.00e-01,
582,-1.00e+00,-1.00e+00,8.00e-01,
583,-6.00e-01,-8.80e-01,7.20e-01,
584,-1.00e+00,-9.20e-01,7.20e-01,
585,-6.00e-01,-8.80e-01,7.60e-01,
586,-1.00e+00,-9.20e-01,7.60e-01,
587,-4.00e-01,-8.40e-01,6.40e-01,
588,-4.00e-01,-9.20e-01,7.60e-01,
589,-8.00e-01,-8.40e-01,6.40e-01,
590,-8.00e-01,-8.80e-01,6.80e-01,
591,-4.00e-01,-8.00e-01,6.00e-01,
592,-8.00e-01,-8.00e-01,6.80e-01,
593,0.00e+00,-8.80e-01,6.00e-01,
594,0.00e+00,-8.40e-01,6.40e-01,
