Data/QM2/Teil 1/oszi/Oszillogramm-teil1.csv

X,CH1,CH2,CH3,Start,Increment,
Sequence,Volt,Volt,Volt,-3.000000e-03,5.000000e-06
0,-6.40e+00,-8.00e+00,7.60e+00,
1,-5.20e+00,-9.20e+00,8.40e+00,
2,-5.60e+00,-8.00e+00,8.40e+00,
3,-6.40e+00,-9.20e+00,7.60e+00,
4,-6.40e+00,-9.20e+00,8.40e+00,
5,-6.00e+00,-8.80e+00,7.60e+00,
6,-6.40e+00,-8.80e+00,8.40e+00,
7,-6.00e+00,-9.60e+00,8.00e+00,
8,-6.00e+00,-8.80e+00,8.00e+00,
9,-6.80e+00,-9.60e+00,8.80e+00,
10,-6.00e+00,-9.60e+00,8.00e+00,
11,-6.80e+00,-9.20e+00,9.20e+00,
12,-6.80e+00,-9.20e+00,8.00e+00,
13,-6.00e+00,-1.00e+01,9.20e+00,
14,-6.80e+00,-9.20e+00,9.20e+00,
15,-6.00e+00,-1.04e+01,8.00e+00,
16,-6.80e+00,-1.04e+01,8.80e+00,
17,-6.00e+00,-9.20e+00,9.20e+00,
18,-6.80e+00,-1.00e+01,8.80e+00,
19,-6.00e+00,-1.04e+01,9.20e+00,
20,-6.80e+00,-1.00e+01,8.80e+00,
21,-6.00e+00,-1.04e+01,9.60e+00,
22,-6.80e+00,-1.00e+01,9.60e+00,
23,-6.40e+00,-1.08e+01,8.80e+00,
24,-6.80e+00,-1.00e+01,9.60e+00,
25,-6.40e+00,-1.08e+01,8.80e+00,
26,-6.80e+00,-1.00e+01,8.80e+00,
27,-6.40e+00,-1.08e+01,9.60e+00,
28,-6.80e+00,-1.00e+01,9.20e+00,
29,-6.40e+00,-1.08e+01,9.60e+00,
30,-6.80e+00,-1.04e+01,9.20e+00,
31,-6.40e+00,-1.08e+01,9.60e+00,
32,-6.80e+00,-1.04e+01,9.20e+00,
33,-6.40e+00,-1.08e+01,9.60e+00,
34,-6.80e+00,-1.04e+01,9.60e+00,
35,-6.40e+00,-1.08e+01,9.20e+00,
36,-6.80e+00,-1.04e+01,9.20e+00,
37,-6.40e+00,-1.16e+01,9.60e+00,
38,-6.80e+00,-1.04e+01,9.20e+00,
39,-6.40e+00,-1.16e+01,1.04e+01,
40,-6.80e+00,-1.04e+01,9.20e+00,
41,-6.40e+00,-1.16e+01,1.04e+01,
42,-6.80e+00,-1.04e+01,9.20e+00,
43,-6.40e+00,-1.16e+01,1.04e+01,
44,-6.80e+00,-1.04e+01,9.20e+00,
45,-6.40e+00,-1.16e+01,1.04e+01,
46,-6.80e+00,-1.04e+01,9.20e+00,
47,-6.00e+00,-1.16e+01,1.04e+01,
48,-6.00e+00,-1.04e+01,9.20e+00,
49,-6.80e+00,-1.16e+01,1.04e+01,
50,-6.00e+00,-1.16e+01,1.04e+01,
51,-6.80e+00,-1.04e+01,9.20e+00,
52,-6.00e+00,-1.16e+01,9.20e+00,
53,-6.80e+00,-1.04e+01,1.04e+01,
54,-6.00e+00,-1.04e+01,9.20e+00,
55,-6.80e+00,-1.16e+01,1.04e+01,
56,-6.80e+00,-1.04e+01,9.20e+00,
57,-6.00e+00,-1.16e+01,1.04e+01,
58,-6.80e+00,-1.04e+01,1.04e+01,
59,-6.00e+00,-1.16e+01,9.20e+00,
60,-6.80e+00,-1.08e+01,1.00e+01,
61,-6.00e+00,-1.04e+01,9.20e+00,
62,-6.00e+00,-1.04e+01,9.20e+00,
63,-6.40e+00,-1.08e+01,1.00e+01,
64,-6.00e+00,-1.08e+01,9.60e+00,
65,-6.40e+00,-1.04e+01,9.20e+00,
66,-6.00e+00,-1.08e+01,9.60e+00,
67,-6.40e+00,-1.04e+01,9.20e+00,
68,-6.40e+00,-1.08e+01,9.60e+00,
69,-5.20e+00,-1.00e+01,9.20e+00,
70,-6.40e+00,-1.00e+01,9.60e+00,
71,-5.60e+00,-1.08e+01,9.20e+00,
72,-6.40e+00,-1.00e+01,9.60e+00,
73,-5.20e+00,-1.08e+01,8.80e+00,
74,-6.40e+00,-1.00e+01,9.60e+00,
75,-5.20e+00,-1.04e+01,8.80e+00,
76,-5.60e+00,-1.00e+01,9.60e+00,
77,-5.20e+00,-1.04e+01,8.80e+00,
78,-5.60e+00,-1.04e+01,9.60e+00,
79,-5.20e+00,-9.20e+00,8.80e+00,
80,-5.60e+00,-1.04e+01,8.80e+00,
81,-4.80e+00,-9.20e+00,9.20e+00,
82,-5.60e+00,-1.00e+01,8.80e+00,
83,-4.80e+00,-9.20e+00,8.80e+00,
84,-5.60e+00,-9.60e+00,8.00e+00,
85,-4.80e+00,-9.20e+00,9.20e+00,
86,-5.60e+00,-9.60e+00,8.00e+00,
87,-4.80e+00,-8.80e+00,9.20e+00,
88,-4.80e+00,-8.80e+00,8.00e+00,
89,-5.60e+00,-9.60e+00,9.20e+00,
90,-5.20e+00,-8.80e+00,8.40e+00,
91,-4.00e+00,-9.60e+00,8.00e+00,
92,-5.20e+00,-8.80e+00,8.40e+00,
93,-4.00e+00,-9.20e+00,7.60e+00,
94,-5.20e+00,-8.00e+00,7.60e+00,
95,-4.40e+00,-9.20e+00,8.40e+00,
96,-4.40e+00,-8.00e+00,8.40e+00,
97,-4.00e+00,-9.20e+00,7.60e+00,
98,-4.40e+00,-8.00e+00,7.60e+00,
99,-3.60e+00,-8.40e+00,8.00e+00,
100,-4.40e+00,-8.40e+00,8.00e+00,
101,-3.60e+00,-7.60e+00,6.80e+00,
102,-4.40e+00,-7.60e+00,6.80e+00,
103,-3.60e+00,-8.40e+00,7.60e+00,
104,-4.00e+00,-8.00e+00,7.60e+00,
105,-3.60e+00,-6.80e+00,6.80e+00,
106,-4.00e+00,-6.80e+00,7.20e+00,
107,-2.80e+00,-8.00e+00,6.80e+00,
108,-4.00e+00,-6.80e+00,7.20e+00,
109,-2.80e+00,-7.20e+00,6.40e+00,
110,-4.00e+00,-7.20e+00,6.40e+00,
111,-2.80e+00,-6.40e+00,7.20e+00,
112,-3.20e+00,-6.40e+00,6.40e+00,
113,-2.40e+00,-7.20e+00,6.80e+00,
114,-3.20e+00,-6.80e+00,6.80e+00,
115,-2.40e+00,-5.60e+00,5.60e+00,
116,-3.20e+00,-5.60e+00,6.40e+00,
117,-2.40e+00,-6.80e+00,5.60e+00,
118,-3.20e+00,-5.60e+00,6.00e+00,
119,-2.40e+00,-6.00e+00,5.60e+00,
120,-2.80e+00,-6.00e+00,6.00e+00,
121,-1.60e+00,-5.20e+00,5.20e+00,
122,-2.80e+00,-5.20e+00,6.00e+00,
123,-1.60e+00,-6.00e+00,5.20e+00,
124,-2.00e+00,-5.60e+00,5.20e+00,
125,-2.80e+00,-4.40e+00,5.60e+00,
126,-2.00e+00,-5.20e+00,4.40e+00,
127,-1.20e+00,-4.40e+00,5.60e+00,
128,-2.00e+00,-4.80e+00,4.40e+00,
129,-1.20e+00,-4.00e+00,5.20e+00,
130,-2.00e+00,-4.80e+00,4.80e+00,
131,-1.20e+00,-4.00e+00,4.00e+00,
132,-1.60e+00,-4.40e+00,4.00e+00,
133,-8.00e-01,-3.20e+00,4.80e+00,
134,-1.60e+00,-4.40e+00,4.40e+00,
135,-8.00e-01,-3.20e+00,3.20e+00,
136,-8.00e-01,-3.60e+00,4.00e+00,
137,-1.60e+00,-2.80e+00,3.20e+00,
138,-8.00e-01,-2.80e+00,3.20e+00,
139,-8.00e-01,-3.60e+00,3.60e+00,
140,-8.00e-01,-3.20e+00,3.60e+00,
141,0.00e+00,-2.00e+00,2.80e+00,
142,-8.00e-01,-2.00e+00,3.60e+00,
143,0.00e+00,-3.20e+00,2.80e+00,
144,-4.00e-01,-2.40e+00,2.80e+00,
145,0.00e+00,-2.00e+00,2.00e+00,
146,-4.00e-01,-2.40e+00,2.00e+00,
147,4.00e-01,-1.60e+00,3.20e+00,
148,4.00e-01,-2.00e+00,2.40e+00,
149,-4.00e-01,-8.00e-01,2.00e+00,
150,-4.00e-01,-8.00e-01,2.40e+00,
151,4.00e-01,-2.00e+00,1.60e+00,
152,4.00e-01,-1.20e+00,2.00e+00,
153,1.20e+00,-4.00e-01,1.60e+00,
154,1.20e+00,-4.00e-01,2.00e+00,
155,4.00e-01,-1.20e+00,8.00e-01,
156,4.00e-01,-8.00e-01,8.00e-01,
157,1.20e+00,4.00e-01,1.60e+00,
158,8.00e-01,4.00e-01,1.20e+00,
159,1.60e+00,-8.00e-01,4.00e-01,
160,1.60e+00,0.00e+00,1.20e+00,
161,8.00e-01,8.00e-01,4.00e-01,
162,8.00e-01,8.00e-01,8.00e-01,
163,1.60e+00,0.00e+00,-4.00e-01,
164,1.20e+00,8.00e-01,-4.00e-01,
165,2.40e+00,4.00e-01,4.00e-01,
166,2.40e+00,1.60e+00,0.00e+00,
167,1.20e+00,4.00e-01,-8.00e-01,
168,1.20e+00,1.20e+00,-8.00e-01,
169,2.40e+00,2.00e+00,0.00e+00,
170,2.00e+00,2.00e+00,-8.00e-01,
171,2.40e+00,1.20e+00,-4.00e-01,
172,2.00e+00,1.60e+00,-1.60e+00,
173,2.80e+00,2.40e+00,-4.00e-01,
174,2.00e+00,2.80e+00,-8.00e-01,
175,2.80e+00,1.60e+00,-1.60e+00,
176,2.80e+00,2.40e+00,-1.20e+00,
177,2.80e+00,3.20e+00,-2.00e+00,
178,2.40e+00,2.40e+00,-2.00e+00,
179,3.60e+00,3.20e+00,-1.20e+00,
180,3.60e+00,3.20e+00,-2.00e+00,
181,2.80e+00,2.80e+00,-2.80e+00,
182,2.80e+00,2.80e+00,-2.00e+00,
183,3.60e+00,4.00e+00,-2.80e+00,
184,3.60e+00,3.60e+00,-2.40e+00,
185,3.20e+00,4.00e+00,-3.20e+00,
186,4.00e+00,3.60e+00,-3.20e+00,
187,3.20e+00,4.40e+00,-2.40e+00,
188,3.20e+00,3.60e+00,-3.20e+00,
189,4.00e+00,4.40e+00,-2.80e+00,
190,4.00e+00,4.00e+00,-4.00e+00,
191,3.60e+00,5.20e+00,-2.80e+00,
192,3.60e+00,4.00e+00,-2.80e+00,
193,4.80e+00,5.20e+00,-4.00e+00,
194,4.80e+00,4.80e+00,-3.60e+00,
195,4.00e+00,5.60e+00,-4.40e+00,
196,4.00e+00,4.80e+00,-3.60e+00,
197,4.80e+00,5.60e+00,-4.40e+00,
198,4.40e+00,5.60e+00,-4.00e+00,
199,4.80e+00,5.20e+00,-5.20e+00,
200,4.40e+00,5.20e+00,-5.20e+00,
201,5.20e+00,6.40e+00,-4.00e+00,
202,5.20e+00,5.60e+00,-4.80e+00,
203,4.40e+00,6.40e+00,-5.20e+00,
204,4.40e+00,6.00e+00,-4.80e+00,
205,5.20e+00,6.80e+00,-5.60e+00,
206,4.40e+00,6.00e+00,-4.80e+00,
207,5.20e+00,6.80e+00,-5.60e+00,
208,4.80e+00,6.80e+00,-5.20e+00,
209,5.60e+00,6.40e+00,-6.00e+00,
210,6.00e+00,6.40e+00,-5.60e+00,
211,4.80e+00,7.60e+00,-6.40e+00,
212,6.00e+00,7.60e+00,-6.40e+00,
213,4.80e+00,6.40e+00,-6.00e+00,
214,4.80e+00,7.20e+00,-6.00e+00,
215,6.00e+00,7.60e+00,-6.80e+00,
216,5.60e+00,7.20e+00,-6.00e+00,
217,6.00e+00,8.00e+00,-6.80e+00,
218,6.00e+00,8.00e+00,-6.80e+00,
219,5.60e+00,7.20e+00,-6.40e+00,
220,5.60e+00,8.00e+00,-6.40e+00,
221,6.40e+00,7.60e+00,-7.60e+00,
222,6.40e+00,7.60e+00,-6.80e+00,
223,5.60e+00,8.80e+00,-7.60e+00,
224,6.40e+00,8.80e+00,-7.60e+00,
225,5.60e+00,7.60e+00,-7.20e+00,
226,6.40e+00,8.40e+00,-7.20e+00,
227,5.60e+00,8.80e+00,-8.00e+00,
228,6.40e+00,8.80e+00,-7.20e+00,
229,6.00e+00,8.40e+00,-8.00e+00,
230,6.00e+00,8.40e+00,-8.00e+00,
231,6.40e+00,9.20e+00,-7.60e+00,
232,6.40e+00,8.40e+00,-7.60e+00,
233,6.00e+00,9.20e+00,-8.80e+00,
234,7.20e+00,9.20e+00,-8.80e+00,
235,6.00e+00,8.80e+00,-7.60e+00,
236,7.20e+00,9.20e+00,-8.00e+00,
237,6.00e+00,8.80e+00,-8.80e+00,
238,6.40e+00,8.80e+00,-8.40e+00,
239,7.20e+00,1.00e+01,-8.80e+00,
240,7.20e+00,1.00e+01,-8.40e+00,
241,6.00e+00,8.80e+00,-9.20e+00,
242,7.20e+00,9.20e+00,-8.40e+00,
243,6.00e+00,1.00e+01,-9.20e+00,
244,7.20e+00,9.60e+00,-8.40e+00,
245,6.00e+00,1.00e+01,-9.20e+00,
246,6.40e+00,9.60e+00,-9.20e+00,
247,7.20e+00,1.00e+01,-8.80e+00,
248,7.20e+00,9.60e+00,-9.20e+00,
249,6.40e+00,1.00e+01,-8.80e+00,
250,6.80e+00,9.60e+00,-8.80e+00,
251,7.20e+00,1.04e+01,-1.00e+01,
252,6.80e+00,1.04e+01,-1.00e+01,
253,7.20e+00,9.60e+00,-8.80e+00,
254,6.80e+00,9.60e+00,-1.00e+01,
255,7.20e+00,1.04e+01,-9.20e+00,
256,6.80e+00,1.04e+01,-1.00e+01,
257,7.20e+00,9.60e+00,-8.80e+00,
258,7.20e+00,1.04e+01,-1.00e+01,
259,6.80e+00,1.00e+01,-9.60e+00,
260,7.20e+00,1.00e+01,-1.00e+01,
261,6.80e+00,1.04e+01,-9.60e+00,
262,6.80e+00,1.04e+01,-9.60e+00,
263,7.20e+00,1.00e+01,-1.00e+01,
264,6.80e+00,1.04e+01,-1.00e+01,
265,7.20e+00,1.00e+01,-9.60e+00,
266,6.80e+00,1.04e+01,-1.00e+01,
267,7.20e+00,1.00e+01,-9.60e+00,
268,6.80e+00,1.04e+01,-9.60e+00,
269,7.20e+00,1.00e+01,-1.04e+01,
270,6.80e+00,1.04e+01,-9.60e+00,
271,7.20e+00,1.00e+01,-1.04e+01,
272,6.80e+00,1.00e+01,-1.04e+01,
273,7.20e+00,1.08e+01,-9.60e+00,
274,7.20e+00,1.00e+01,-9.60e+00,
275,6.00e+00,1.12e+01,-1.04e+01,
276,7.20e+00,1.00e+01,-9.60e+00,
277,6.40e+00,1.12e+01,-1.04e+01,
278,7.20e+00,1.00e+01,-1.04e+01,
279,6.00e+00,1.08e+01,-9.60e+00,
280,7.20e+00,1.00e+01,-9.60e+00,
281,6.00e+00,1.04e+01,-1.04e+01,
282,7.20e+00,1.04e+01,-9.60e+00,
283,6.00e+00,1.00e+01,-1.04e+01,
284,6.00e+00,1.00e+01,-9.60e+00,
285,7.20e+00,1.04e+01,-1.00e+01,
286,6.00e+00,1.00e+01,-1.00e+01,
287,7.20e+00,1.04e+01,-9.60e+00,
288,7.20e+00,1.00e+01,-9.60e+00,
289,6.00e+00,1.04e+01,-1.00e+01,
290,6.40e+00,1.04e+01,-1.00e+01,
291,6.00e+00,1.00e+01,-9.60e+00,
292,6.40e+00,1.04e+01,-9.60e+00,
293,6.00e+00,9.60e+00,-1.00e+01,
294,6.40e+00,1.04e+01,-1.00e+01,
295,5.60e+00,9.60e+00,-9.20e+00,
296,6.40e+00,1.04e+01,-1.00e+01,
297,5.60e+00,9.60e+00,-8.80e+00,
298,5.60e+00,1.04e+01,-9.20e+00,
299,6.00e+00,9.60e+00,-1.00e+01,
300,5.60e+00,9.60e+00,-8.80e+00,
301,6.40e+00,1.00e+01,-1.00e+01,
302,6.40e+00,9.60e+00,-1.00e+01,
303,5.60e+00,1.00e+01,-8.80e+00,
304,6.00e+00,9.60e+00,-9.20e+00,
305,5.60e+00,1.00e+01,-8.80e+00,
306,6.00e+00,1.00e+01,-8.80e+00,
307,5.20e+00,8.80e+00,-9.20e+00,
308,6.00e+00,1.00e+01,-9.20e+00,
309,4.80e+00,8.80e+00,-8.40e+00,
310,5.20e+00,8.80e+00,-8.40e+00,
311,6.00e+00,9.20e+00,-9.20e+00,
312,5.20e+00,9.20e+00,-8.40e+00,
313,6.00e+00,8.80e+00,-9.20e+00,
314,6.00e+00,9.20e+00,-8.80e+00,
315,4.80e+00,8.40e+00,-8.00e+00,
316,5.20e+00,8.40e+00,-8.80e+00,
317,4.40e+00,9.20e+00,-8.00e+00,
318,4.40e+00,9.20e+00,-7.60e+00,
319,5.20e+00,8.40e+00,-8.80e+00,
320,5.20e+00,8.40e+00,-8.80e+00,
321,4.40e+00,8.80e+00,-7.60e+00,
322,5.20e+00,8.80e+00,-8.00e+00,
323,4.40e+00,7.60e+00,-7.20e+00,
324,4.40e+00,8.80e+00,-8.00e+00,
325,4.80e+00,7.60e+00,-7.20e+00,
326,4.00e+00,8.00e+00,-8.00e+00,
327,4.80e+00,7.60e+00,-7.20e+00,
328,4.80e+00,8.00e+00,-7.60e+00,
329,3.60e+00,7.20e+00,-6.80e+00,
330,4.80e+00,8.00e+00,-7.60e+00,
331,4.00e+00,7.20e+00,-6.40e+00,
332,4.00e+00,8.00e+00,-6.80e+00,
333,3.20e+00,7.20e+00,-7.60e+00,
334,3.20e+00,7.60e+00,-6.80e+00,
335,4.00e+00,6.40e+00,-6.40e+00,
336,3.20e+00,7.60e+00,-6.80e+00,
337,4.00e+00,6.40e+00,-6.00e+00,
338,3.20e+00,6.80e+00,-6.80e+00,
339,4.00e+00,6.40e+00,-6.00e+00,
340,3.60e+00,6.80e+00,-6.40e+00,
341,2.80e+00,6.00e+00,-5.60e+00,
342,3.60e+00,6.80e+00,-6.40e+00,
343,2.40e+00,6.00e+00,-5.20e+00,
344,3.60e+00,6.40e+00,-5.60e+00,
345,2.40e+00,6.00e+00,-5.60e+00,
346,2.80e+00,6.40e+00,-5.60e+00,
347,2.80e+00,5.20e+00,-4.80e+00,
348,2.80e+00,5.20e+00,-4.80e+00,
349,2.00e+00,6.40e+00,-5.60e+00,
350,2.80e+00,5.60e+00,-5.20e+00,
351,2.00e+00,4.80e+00,-4.40e+00,
352,2.40e+00,5.60e+00,-4.40e+00,
353,2.00e+00,4.80e+00,-5.20e+00,
354,2.40e+00,4.80e+00,-4.40e+00,
355,1.60e+00,5.20e+00,-4.00e+00,
356,1.60e+00,5.20e+00,-4.40e+00,
357,2.40e+00,4.00e+00,-3.60e+00,
358,2.40e+00,4.80e+00,-4.40e+00,
359,1.20e+00,4.00e+00,-3.60e+00,
360,1.60e+00,4.40e+00,-4.00e+00,
361,8.00e-01,3.60e+00,-3.20e+00,
362,1.60e+00,4.40e+00,-4.00e+00,
363,8.00e-01,3.60e+00,-2.80e+00,
364,1.60e+00,4.00e+00,-3.20e+00,
365,8.00e-01,2.80e+00,-2.40e+00,
366,1.20e+00,4.00e+00,-2.40e+00,
367,4.00e-01,2.80e+00,-3.20e+00,
368,1.20e+00,3.20e+00,-2.40e+00,
369,4.00e-01,2.40e+00,-2.80e+00,
370,4.00e-01,2.40e+00,-2.80e+00,
371,1.20e+00,3.20e+00,-1.60e+00,
372,4.00e-01,2.80e+00,-2.80e+00,
373,-4.00e-01,1.60e+00,-2.00e+00,
374,4.00e-01,2.80e+00,-2.00e+00,
375,-4.00e-01,1.60e+00,-1.20e+00,
376,4.00e-01,2.00e+00,-2.00e+00,
377,-4.00e-01,1.60e+00,-1.20e+00,
378,0.00e+00,2.00e+00,-1.60e+00,
379,-4.00e-01,1.20e+00,-4.00e-01,
380,0.00e+00,1.60e+00,-8.00e-01,
381,-8.00e-01,4.00e-01,-1.60e+00,
382,-8.00e-01,1.60e+00,-8.00e-01,
383,0.00e+00,4.00e-01,0.00e+00,
384,-8.00e-01,8.00e-01,-8.00e-01,
385,-1.60e+00,4.00e-01,0.00e+00,
386,-8.00e-01,8.00e-01,-4.00e-01,
387,-1.60e+00,0.00e+00,4.00e-01,
388,-1.60e+00,4.00e-01,-4.00e-01,
389,-8.00e-01,0.00e+00,8.00e-01,
390,-1.20e+00,4.00e-01,4.00e-01,
391,-1.60e+00,-8.00e-01,8.00e-01,
392,-1.20e+00,-4.00e-01,4.00e-01,
393,-2.00e+00,-8.00e-01,1.20e+00,
394,-2.00e+00,-4.00e-01,1.20e+00,
395,-1.20e+00,-1.20e+00,4.00e-01,
396,-2.00e+00,-1.20e+00,8.00e-01,
397,-1.20e+00,-8.00e-01,2.00e+00,
398,-1.60e+00,-8.00e-01,8.00e-01,
399,-2.80e+00,-2.00e+00,2.00e+00,
400,-2.80e+00,-2.00e+00,1.60e+00,
401,-1.60e+00,-8.00e-01,2.40e+00,
402,-2.00e+00,-1.60e+00,1.60e+00,
403,-2.80e+00,-2.40e+00,2.40e+00,
404,-2.80e+00,-2.00e+00,2.00e+00,
405,-2.40e+00,-2.40e+00,3.20e+00,
406,-2.40e+00,-2.00e+00,2.00e+00,
407,-3.20e+00,-3.20e+00,3.20e+00,
408,-3.20e+00,-3.20e+00,2.80e+00,
409,-2.40e+00,-2.80e+00,3.20e+00,
410,-3.20e+00,-2.80e+00,2.80e+00,
411,-2.40e+00,-3.60e+00,3.60e+00,
412,-2.80e+00,-3.60e+00,3.60e+00,
413,-4.00e+00,-3.20e+00,2.80e+00,
414,-4.00e+00,-3.20e+00,3.20e+00,
415,-3.20e+00,-4.40e+00,4.00e+00,
416,-3.20e+00,-4.40e+00,3.20e+00,
417,-4.00e+00,-3.20e+00,4.40e+00,
418,-4.00e+00,-4.00e+00,4.00e+00,
419,-3.60e+00,-4.80e+00,4.40e+00,
420,-3.60e+00,-4.00e+00,4.00e+00,
421,-4.40e+00,-4.80e+00,4.80e+00,
422,-4.40e+00,-4.40e+00,4.00e+00,
423,-3.60e+00,-5.60e+00,4.80e+00,
424,-3.60e+00,-4.40e+00,4.40e+00,
425,-4.40e+00,-5.60e+00,5.20e+00,
426,-4.40e+00,-5.20e+00,4.40e+00,
427,-4.00e+00,-6.00e+00,5.60e+00,
428,-4.40e+00,-5.20e+00,5.20e+00,
429,-5.20e+00,-6.00e+00,5.60e+00,
430,-5.20e+00,-5.60e+00,5.20e+00,
431,-4.40e+00,-6.00e+00,6.00e+00,
432,-5.20e+00,-5.60e+00,5.20e+00,
433,-4.00e+00,-6.80e+00,6.00e+00,
434,-5.20e+00,-5.60e+00,5.60e+00,
435,-4.80e+00,-6.80e+00,6.00e+00,
436,-4.80e+00,-6.40e+00,5.60e+00,
437,-5.60e+00,-7.20e+00,6.40e+00,
438,-5.60e+00,-7.20e+00,5.60e+00,
439,-4.80e+00,-6.40e+00,6.80e+00,
440,-5.60e+00,-7.20e+00,6.40e+00,
441,-4.80e+00,-6.80e+00,6.80e+00,
442,-5.60e+00,-6.80e+00,6.40e+00,
443,-4.80e+00,-8.00e+00,7.20e+00,
444,-5.60e+00,-6.80e+00,6.40e+00,
445,-5.20e+00,-8.00e+00,7.20e+00,
446,-5.60e+00,-7.60e+00,7.20e+00,
447,-5.60e+00,-8.40e+00,6.80e+00,
448,-5.20e+00,-8.40e+00,6.80e+00,
449,-6.40e+00,-7.60e+00,8.00e+00,
450,-6.40e+00,-8.00e+00,6.80e+00,
451,-5.20e+00,-8.40e+00,8.00e+00,
452,-6.40e+00,-8.00e+00,8.00e+00,
453,-5.20e+00,-9.20e+00,7.60e+00,
454,-6.40e+00,-8.00e+00,7.60e+00,
455,-5.20e+00,-9.20e+00,8.40e+00,
456,-6.40e+00,-8.80e+00,8.40e+00,
457,-5.60e+00,-9.20e+00,7.60e+00,
458,-6.00e+00,-8.80e+00,7.60e+00,
459,-6.40e+00,-9.20e+00,8.40e+00,
460,-6.40e+00,-8.80e+00,8.40e+00,
461,-6.00e+00,-9.60e+00,8.00e+00,
462,-6.00e+00,-8.80e+00,8.00e+00,
463,-6.80e+00,-9.60e+00,9.20e+00,
464,-6.80e+00,-9.20e+00,8.00e+00,
465,-6.00e+00,-9.60e+00,9.20e+00,
466,-6.80e+00,-9.20e+00,9.20e+00,
467,-6.00e+00,-1.04e+01,8.00e+00,
468,-6.80e+00,-9.20e+00,8.00e+00,
469,-6.00e+00,-1.04e+01,9.20e+00,
470,-6.80e+00,-9.20e+00,8.80e+00,
471,-6.00e+00,-1.04e+01,9.20e+00,
472,-6.80e+00,-1.00e+01,8.80e+00,
473,-6.00e+00,-1.04e+01,9.20e+00,
474,-6.00e+00,-1.00e+01,8.80e+00,
475,-6.80e+00,-1.04e+01,9.60e+00,
476,-6.40e+00,-1.00e+01,9.60e+00,
477,-6.80e+00,-1.08e+01,8.80e+00,
478,-6.80e+00,-1.00e+01,8.80e+00,
479,-6.40e+00,-1.08e+01,9.60e+00,
480,-6.80e+00,-1.00e+01,9.60e+00,
481,-6.40e+00,-1.08e+01,8.80e+00,
482,-6.80e+00,-1.08e+01,9.60e+00,
483,-6.40e+00,-1.04e+01,9.20e+00,
484,-6.80e+00,-1.08e+01,9.60e+00,
485,-6.40e+00,-1.04e+01,9.20e+00,
486,-6.80e+00,-1.04e+01,9.20e+00,
487,-6.40e+00,-1.08e+01,9.60e+00,
488,-6.80e+00,-1.08e+01,9.20e+00,
489,-6.40e+00,-1.04e+01,9.60e+00,
490,-6.80e+00,-1.04e+01,9.20e+00,
491,-6.40e+00,-1.16e+01,1.00e+01,
492,-6.80e+00,-1.16e+01,9.20e+00,
493,-6.40e+00,-1.04e+01,1.00e+01,
494,-6.80e+00,-1.16e+01,9.20e+00,
495,-6.40e+00,-1.04e+01,1.04e+01,
496,-6.80e+00,-1.04e+01,1.04e+01,
497,-6.40e+00,-1.16e+01,9.20e+00,
498,-6.80e+00,-1.04e+01,9.20e+00,
499,-6.40e+00,-1.16e+01,1.04e+01,
500,-6.80e+00,-1.04e+01,1.04e+01,
501,-6.00e+00,-1.16e+01,9.20e+00,
502,-6.80e+00,-1.04e+01,9.20e+00,
503,-6.00e+00,-1.16e+01,1.04e+01,
504,-6.00e+00,-1.04e+01,9.20e+00,
505,-6.80e+00,-1.16e+01,1.04e+01,
506,-6.00e+00,-1.16e+01,9.20e+00,
507,-6.80e+00,-1.04e+01,1.04e+01,
508,-6.80e+00,-1.16e+01,1.00e+01,
509,-6.00e+00,-1.04e+01,9.20e+00,
510,-6.80e+00,-1.04e+01,9.20e+00,
511,-6.00e+00,-1.16e+01,1.04e+01,
512,-6.80e+00,-1.04e+01,1.04e+01,
513,-6.00e+00,-1.16e+01,9.20e+00,
514,-6.00e+00,-1.08e+01,9.20e+00,
515,-6.80e+00,-1.04e+01,1.00e+01,
516,-6.00e+00,-1.08e+01,9.60e+00,
517,-6.40e+00,-1.04e+01,9.20e+00,
518,-6.40e+00,-1.08e+01,9.20e+00,
519,-6.00e+00,-1.04e+01,9.60e+00,
520,-6.40e+00,-1.08e+01,9.20e+00,
521,-5.60e+00,-1.00e+01,9.60e+00,
522,-6.40e+00,-1.08e+01,9.20e+00,
523,-5.20e+00,-1.00e+01,9.60e+00,
524,-6.40e+00,-1.08e+01,9.60e+00,
525,-5.20e+00,-1.00e+01,9.20e+00,
526,-6.40e+00,-1.00e+01,9.60e+00,
527,-5.20e+00,-1.08e+01,8.80e+00,
528,-6.40e+00,-1.00e+01,8.80e+00,
529,-5.20e+00,-1.04e+01,9.60e+00,
530,-6.00e+00,-1.04e+01,9.60e+00,
531,-5.20e+00,-1.00e+01,8.80e+00,
532,-5.60e+00,-1.04e+01,8.80e+00,
533,-5.20e+00,-9.20e+00,9.20e+00,
534,-5.60e+00,-9.20e+00,8.80e+00,
535,-4.80e+00,-1.04e+01,9.20e+00,
536,-5.60e+00,-9.60e+00,8.80e+00,
537,-4.80e+00,-9.20e+00,9.20e+00,
538,-5.60e+00,-9.20e+00,8.00e+00,
539,-4.80e+00,-9.60e+00,9.20e+00,
540,-4.80e+00,-9.60e+00,9.20e+00,
541,-5.20e+00,-8.80e+00,8.00e+00,
542,-5.20e+00,-8.80e+00,8.00e+00,
543,-4.40e+00,-9.60e+00,9.20e+00,
544,-5.20e+00,-8.80e+00,8.40e+00,
545,-4.40e+00,-9.20e+00,8.00e+00,
546,-5.20e+00,-9.20e+00,8.40e+00,
547,-4.40e+00,-8.00e+00,7.60e+00,
548,-5.20e+00,-9.20e+00,8.40e+00,
549,-4.00e+00,-8.00e+00,7.60e+00,
550,-4.40e+00,-8.00e+00,8.40e+00,
551,-4.00e+00,-8.40e+00,7.60e+00,
552,-4.40e+00,-8.40e+00,7.60e+00,
553,-3.60e+00,-7.60e+00,7.60e+00,
554,-3.60e+00,-8.40e+00,8.00e+00,
555,-4.40e+00,-7.60e+00,6.80e+00,
556,-4.40e+00,-7.60e+00,6.80e+00,
557,-3.60e+00,-8.00e+00,8.00e+00,
558,-4.00e+00,-8.00e+00,6.80e+00,
559,-3.20e+00,-6.80e+00,7.60e+00,
560,-4.00e+00,-7.60e+00,7.20e+00,
561,-2.80e+00,-6.80e+00,6.40e+00,
562,-4.00e+00,-7.20e+00,6.40e+00,
563,-3.20e+00,-6.80e+00,7.20e+00,
564,-3.20e+00,-6.40e+00,7.20e+00,
565,-2.80e+00,-7.20e+00,6.40e+00,
566,-3.20e+00,-6.40e+00,6.40e+00,
567,-2.40e+00,-6.80e+00,6.80e+00,
568,-3.20e+00,-6.80e+00,5.60e+00,
569,-2.40e+00,-5.60e+00,6.80e+00,
570,-3.20e+00,-5.60e+00,6.40e+00,
571,-2.40e+00,-6.40e+00,5.60e+00,
572,-2.40e+00,-6.00e+00,6.00e+00,
573,-2.80e+00,-5.20e+00,5.20e+00,
574,-2.80e+00,-6.00e+00,6.00e+00,
575,-2.00e+00,-5.20e+00,5.20e+00,
576,-2.80e+00,-5.20e+00,5.20e+00,
577,-1.60e+00,-5.60e+00,6.00e+00,
578,-2.00e+00,-5.60e+00,5.60e+00,
579,-1.60e+00,-4.40e+00,4.40e+00,
580,-2.00e+00,-4.40e+00,4.40e+00,
581,-1.20e+00,-5.60e+00,5.60e+00,
582,-1.20e+00,-4.80e+00,4.40e+00,
583,-2.00e+00,-4.00e+00,4.80e+00,
584,-2.00e+00,-4.00e+00,4.80e+00,
585,-1.20e+00,-4.40e+00,4.00e+00,
586,-1.60e+00,-4.40e+00,4.80e+00,
587,-8.00e-01,-3.20e+00,4.00e+00,
588,-1.60e+00,-3.20e+00,4.40e+00,
589,-8.00e-01,-4.00e+00,3.20e+00,
590,-1.60e+00,-3.60e+00,3.20e+00,
591,-8.00e-01,-2.80e+00,4.40e+00,
592,-8.00e-01,-2.80e+00,3.20e+00,
593,0.00e+00,-3.60e+00,3.60e+00,
594,0.00e+00,-3.20e+00,3.60e+00,
595,-8.00e-01,-2.00e+00,2.80e+00,
